<?xml version="1.0" standalone="no"?>
<!DOCTYPE svg PUBLIC "-//W3C//DTD SVG 1.1//EN" "http://www.w3.org/Graphics/SVG/1.1/DTD/svg11.dtd" >
<svg xmlns="http://www.w3.org/2000/svg" xmlns:xlink="http://www.w3.org/1999/xlink" version="1.1">
<metadata></metadata>
<defs>
<font id="proxima_nova_scosf_rgregular" horiz-adv-x="1347" >
<font-face units-per-em="2048" ascent="1618" descent="-430" />
<missing-glyph horiz-adv-x="530" />
<glyph unicode="&#xfb01;" horiz-adv-x="1474" d="M154 0v1126h782v-141h-621v-338h611v-141h-611v-506h-161zM1159 0v1126h162v-1126h-162z" />
<glyph unicode="&#xfb02;" horiz-adv-x="1943" d="M154 0v1126h782v-141h-621v-338h611v-141h-611v-506h-161zM1159 0v1126h162v-985h545v-141h-707z" />
<glyph horiz-adv-x="0" />
<glyph horiz-adv-x="682" />
<glyph horiz-adv-x="0" />
<glyph horiz-adv-x="0" />
<glyph unicode="&#xd;" horiz-adv-x="0" />
<glyph unicode=" "  horiz-adv-x="530" />
<glyph unicode="&#x09;" horiz-adv-x="530" />
<glyph unicode="&#xa0;" horiz-adv-x="530" />
<glyph unicode="!" horiz-adv-x="376" d="M76 92q0 45 33.5 79t78.5 34t79 -34t34 -79q0 -46 -33.5 -79t-79.5 -33t-79 33t-33 79zM100 1126h176l-28 -786h-119z" />
<glyph unicode="&#x22;" horiz-adv-x="704" d="M111 1292q0 38 27 66t65 28q39 0 66.5 -27.5t27.5 -66.5q0 -13 -13.5 -125t-27.5 -217l-14 -106h-76q-55 419 -55 448zM408 1292q0 39 27.5 66.5t66.5 27.5q38 0 65 -28t27 -66q0 -13 -14 -125t-28 -217l-13 -106h-76q-55 419 -55 448z" />
<glyph unicode="#" horiz-adv-x="1015" d="M45 326l31 96h176l96 289h-178l29 96h180l108 319h117l-108 -319h182l110 319h117l-110 -319h178l-29 -96h-180l-96 -289h182l-31 -96h-184l-109 -326h-116l108 326h-184l-109 -326h-116l108 326h-172zM367 422h184l94 289h-180z" />
<glyph unicode="$" horiz-adv-x="1032" d="M66 152l86 120q53 -58 134 -101t175 -54v403q-45 11 -76.5 20.5t-72 24.5t-68 30.5t-56.5 39.5t-46.5 51t-28.5 64t-11 81q0 128 101 216t258 102v137h121v-139q212 -20 350 -158l-84 -112q-103 109 -266 129v-357q46 -12 79 -21.5t75 -26t71 -33.5t59.5 -43t49 -55.5 t30.5 -69.5t12 -87q0 -138 -95.5 -230t-280.5 -106v-129h-121v129q-126 9 -228.5 56t-166.5 119zM268 834q0 -59 49 -93t144 -61v328q-87 -11 -140 -58t-53 -116zM582 117q108 13 160.5 65t52.5 125q0 72 -54.5 111.5t-158.5 70.5v-372z" />
<glyph unicode="%" horiz-adv-x="1212" d="M53 870q0 120 74.5 200.5t191.5 80.5q120 0 195.5 -80.5t75.5 -200.5t-75.5 -199t-195.5 -79q-117 0 -191.5 79t-74.5 199zM158 870q0 -80 45.5 -134t115.5 -54q73 0 118.5 53.5t45.5 134.5t-46 136t-118 55q-70 0 -115.5 -55.5t-45.5 -135.5zM160 0l782 1126h111 l-787 -1126h-106zM623 256q0 121 75 201t193 80t193 -80t75 -201q0 -120 -75.5 -199.5t-192.5 -79.5t-192.5 79.5t-75.5 199.5zM727 256q0 -81 45.5 -134.5t118.5 -53.5q72 0 118 54.5t46 133.5q0 83 -45.5 136.5t-118.5 53.5t-118.5 -53.5t-45.5 -136.5z" />
<glyph unicode="&#x26;" horiz-adv-x="1138" d="M55 297q0 63 20 116t58.5 93t80 69t99.5 58q-88 141 -88 250q0 116 87 192t216 76q117 0 195 -59t78 -168q0 -36 -9.5 -68.5t-23.5 -57.5t-39 -50t-47 -42t-57.5 -37.5t-60 -33t-64.5 -31.5q51 -63 135 -151q74 -82 139 -148q81 122 123 256l121 -49q-72 -175 -158 -293 q54 -51 238 -219h-195q-7 6 -131 119q-152 -142 -344 -142q-164 0 -268.5 86t-104.5 234zM205 307q0 -94 66.5 -155.5t170.5 -61.5q130 0 244 111q-106 106 -158 166q-82 88 -151 176q-82 -47 -127 -102.5t-45 -133.5zM367 881q0 -80 71 -189q114 52 173 101.5t59 124.5 q0 60 -38 92t-100 32q-72 0 -118.5 -46t-46.5 -115z" />
<glyph unicode="'" horiz-adv-x="407" d="M111 1292q0 38 27 66t65 28q39 0 66.5 -27.5t27.5 -66.5q0 -13 -13.5 -125t-27.5 -217l-14 -106h-76q-55 419 -55 448z" />
<glyph unicode="(" horiz-adv-x="507" d="M90 498q0 246 75 479.5t214 425.5l94 -70q-109 -213 -162 -403.5t-53 -431.5q0 -240 53 -431.5t162 -402.5l-94 -72q-139 192 -214 426t-75 480z" />
<glyph unicode=")" horiz-adv-x="507" d="M35 -336q109 211 162 402.5t53 431.5q0 241 -53 431.5t-162 403.5l94 70q139 -192 214 -425.5t75 -479.5t-75 -480t-214 -426z" />
<glyph unicode="*" horiz-adv-x="696" d="M70 985l209 107l-209 106l45 82l198 -129l-12 235h94l-12 -235l197 129l47 -82l-209 -106l209 -107l-47 -80l-197 127l12 -235h-94l12 235l-198 -127z" />
<glyph unicode="+" horiz-adv-x="1021" d="M59 637v106h394v424h116v-424h394v-106h-394v-436h-116v436h-394z" />
<glyph unicode="," horiz-adv-x="471" d="M117 -197q51 33 89 87t44 104q-8 -4 -29 -4q-41 0 -69.5 30t-28.5 74q0 45 31.5 78t76.5 33q55 0 92 -42.5t37 -113.5q0 -91 -46 -173.5t-119 -135.5z" />
<glyph unicode="-" horiz-adv-x="614" d="M61 428v135h492v-135h-492z" />
<glyph unicode="." horiz-adv-x="473" d="M123 92q0 46 33.5 79.5t79.5 33.5t79 -33.5t33 -79.5t-33 -79t-79 -33t-79.5 33t-33.5 79z" />
<glyph unicode="/" horiz-adv-x="606" d="M0 -41l485 1448h121l-485 -1448h-121z" />
<glyph unicode="0" horiz-adv-x="1253" d="M104 563q0 91 19 175t60.5 159.5t101.5 131.5t148 89t194 33t194 -33t148 -89t101 -131.5t60 -159.5t19 -175q0 -90 -19 -174t-60 -159.5t-101 -132t-148 -89.5t-194 -33t-194 33t-148 89.5t-101.5 132t-60.5 159.5t-19 174zM279 563q0 -85 20.5 -161t61 -138.5 t109 -99.5t157.5 -37t157.5 37t109 99.5t61 138.5t20.5 161t-20 161t-60.5 138.5t-109.5 99.5t-158 37t-157.5 -37t-109 -99.5t-61 -138.5t-20.5 -161z" />
<glyph unicode="1" horiz-adv-x="694" d="M43 774l342 352h150v-1126h-170v903l-220 -233z" />
<glyph unicode="2" horiz-adv-x="1183" d="M92 936q78 102 210 158.5t280 56.5q194 0 320 -101.5t126 -267.5q0 -179 -166 -348.5t-426 -281.5h570v-152h-883v137q370 151 551.5 310.5t181.5 312.5q0 104 -80.5 171.5t-197.5 67.5q-119 0 -219 -46t-162 -126z" />
<glyph unicode="3" horiz-adv-x="1132" d="M51 -39l101 107q62 -82 162 -131.5t218 -49.5q149 0 234.5 69t85.5 187q0 123 -91 182.5t-249 59.5q-121 0 -141 -2v156q23 -2 141 -2q139 0 228 56.5t89 168.5q0 110 -87 171.5t-218 61.5q-110 0 -196.5 -41t-163.5 -125l-94 107q78 97 197.5 154t271.5 57 q202 0 331 -97.5t129 -265.5q0 -71 -27.5 -130t-71.5 -96.5t-93 -60t-100 -30.5q49 -5 101.5 -27.5t101.5 -62t80.5 -105t31.5 -143.5q0 -173 -131.5 -283t-353.5 -110q-165 0 -292 63t-194 162z" />
<glyph unicode="4" horiz-adv-x="1142" d="M66 113v141l585 872h234v-864h192v-149h-192v-353h-170v353h-649zM236 262h479v707z" />
<glyph unicode="5" horiz-adv-x="1208" d="M135 -45l105 115q141 -183 376 -183q138 0 227 83.5t89 209.5q0 134 -87.5 214.5t-226.5 80.5q-182 0 -315 -127l-125 43v735h836v-151h-666v-475q55 54 139 88.5t181 34.5q117 0 214.5 -49t159.5 -150.5t62 -237.5q0 -203 -139 -326.5t-349 -123.5q-316 0 -481 219z" />
<glyph unicode="6" horiz-adv-x="1210" d="M104 682q0 113 20.5 215t65 192t109 155.5t158 103.5t205.5 38q236 0 376 -163l-86 -127q-58 68 -124.5 103.5t-165.5 35.5q-77 0 -142 -30t-109.5 -81.5t-75 -120.5t-45 -146t-14.5 -159v-53q51 81 158.5 147t229.5 66q93 0 173.5 -27.5t141.5 -80.5t96 -137.5 t35 -190.5q0 -89 -33.5 -169.5t-93.5 -142.5t-151 -98.5t-199 -36.5q-112 0 -202 38t-150 103t-100.5 156t-58.5 193t-18 217zM283 508q4 -54 17.5 -105t40.5 -102t64.5 -89t94 -61.5t125.5 -23.5q76 0 137.5 26.5t98.5 69.5t57 93t20 100q0 144 -87.5 219.5t-225.5 75.5 q-101 0 -193 -56t-149 -147z" />
<glyph unicode="7" horiz-adv-x="1054" d="M63 975v151h932v-116l-559 -1250h-188l551 1215h-736z" />
<glyph unicode="8" horiz-adv-x="1191" d="M106 346q0 129 94 223t232 136q-84 24 -149.5 64.5t-109.5 109t-44 153.5q0 89 40.5 158.5t108.5 111t149 63t169 21.5q87 0 168.5 -21.5t150 -63t109.5 -111t41 -158.5q0 -124 -86.5 -206.5t-218.5 -120.5q138 -41 231.5 -135.5t93.5 -223.5q0 -168 -140.5 -269.5 t-348.5 -101.5q-136 0 -246.5 43.5t-177 129t-66.5 198.5zM279 365q0 -107 92.5 -172.5t224.5 -65.5q131 0 224 65.5t93 172.5q0 51 -25 95t-62 72.5t-82.5 50.5t-82 32.5t-65.5 13.5q-29 -3 -65.5 -13.5t-82 -32.5t-82.5 -50.5t-62 -72.5t-25 -95zM301 1010 q0 -47 23.5 -86.5t56 -64t76.5 -44t76 -28t63 -13.5q31 5 63.5 13.5t76.5 28t77 44t56.5 64t23.5 86.5q0 103 -85 164t-212 61q-128 0 -211.5 -61t-83.5 -164z" />
<glyph unicode="9" horiz-adv-x="1210" d="M100 702q0 89 33.5 169.5t94 142.5t152 98.5t200.5 36.5q111 0 201 -38t150 -103t100.5 -156t58.5 -193t18 -217q0 -113 -21 -215t-65.5 -192t-109 -155.5t-157 -103.5t-204.5 -38q-232 0 -379 164l86 127q58 -68 126 -104t167 -36t175.5 46.5t121 125t66.5 171t22 194.5 q0 35 -2 53q-51 -81 -158 -147t-227 -66q-126 0 -225.5 47t-161.5 147.5t-62 241.5zM272 709q0 -144 88.5 -219.5t227.5 -75.5q100 0 193 56t149 148q-5 54 -18.5 104.5t-41 101.5t-65 88.5t-94 61t-125.5 23.5q-75 0 -136.5 -26.5t-99.5 -69t-58 -92t-20 -100.5z" />
<glyph unicode=":" horiz-adv-x="460" d="M123 92q0 46 33.5 79.5t79.5 33.5t79 -33.5t33 -79.5t-33 -79t-79 -33t-79.5 33t-33.5 79zM123 891q0 46 33.5 79.5t79.5 33.5t79 -33.5t33 -79.5q0 -45 -33.5 -79t-78.5 -34t-79 34t-34 79z" />
<glyph unicode=";" horiz-adv-x="471" d="M117 -195q50 33 88.5 88t44.5 105q-8 -4 -29 -4q-42 0 -70 29.5t-28 74.5t31.5 78t76.5 33q55 0 92 -42.5t37 -113.5q0 -92 -45.5 -174t-119.5 -135zM123 891q0 46 33.5 79.5t79.5 33.5t79 -33.5t33 -79.5q0 -45 -33.5 -79t-78.5 -34t-79 34t-34 79z" />
<glyph unicode="&#x3c;" horiz-adv-x="1021" d="M59 631v108l904 449v-129l-773 -375l773 -371v-129z" />
<glyph unicode="=" horiz-adv-x="1021" d="M59 432v109h904v-109h-904zM59 827v109h904v-109h-904z" />
<glyph unicode="&#x3e;" horiz-adv-x="1021" d="M59 184v129l772 371l-772 375v129l904 -449v-108z" />
<glyph unicode="?" horiz-adv-x="811" d="M20 969q68 85 167.5 132.5t222.5 47.5q161 0 257.5 -75t96.5 -185q0 -69 -35.5 -124.5t-86 -91t-101 -67t-86 -68t-35.5 -77.5q0 -45 53 -82l-117 -49q-73 57 -73 135q0 57 33.5 103.5t80.5 78t94.5 61t81 68.5t33.5 86q0 68 -55.5 110t-153.5 42q-180 0 -295 -142z M279 92q0 46 33 79.5t79 33.5t79.5 -33.5t33.5 -79.5t-33.5 -79t-79.5 -33t-79 33t-33 79z" />
<glyph unicode="@" horiz-adv-x="1603" d="M72 500q0 162 67.5 312t179 258t260.5 172.5t306 64.5q189 0 337.5 -88t228 -235.5t79.5 -326.5q0 -115 -31 -209t-82 -152.5t-113 -90t-128 -31.5q-82 0 -132 48.5t-55 117.5v14q-56 -80 -143 -130t-182 -50q-142 0 -228 92t-86 242q0 104 41.5 200t108.5 164.5t154 109 t177 40.5q95 0 163.5 -45t99.5 -115l26 127h140l-117 -555q-4 -24 -4 -43q0 -49 27.5 -77.5t68.5 -28.5q26 0 54 11t59 39t55 68.5t39.5 106.5t15.5 147q0 254 -160 417t-419 163q-145 0 -281.5 -61t-236 -161.5t-159 -235t-59.5 -275.5q0 -162 75 -295t209.5 -209 t301.5 -76q199 0 381 115l37 -53q-200 -129 -426 -129q-183 0 -332 85t-233 232t-84 326zM498 516q0 -101 55.5 -164t153.5 -63q95 0 172.5 53.5t130.5 130.5l59 285q-21 58 -75 103.5t-136 45.5q-150 0 -255 -119t-105 -272z" />
<glyph unicode="A" d="M18 0l551 1366h211l549 -1366h-194l-121 305h-680l-121 -305h-195zM385 455h580l-291 737z" />
<glyph unicode="B" horiz-adv-x="1288" d="M160 0v1366h608q176 0 279.5 -96t103.5 -252q0 -123 -70 -207t-170 -106q109 -17 188 -115.5t79 -220.5q0 -167 -105.5 -268t-290.5 -101h-622zM330 152h420q118 0 184.5 63t66.5 172q0 100 -66 168t-185 68h-420v-471zM330 774h409q112 0 174 61t62 158q0 96 -62 158.5 t-174 62.5h-409v-440z" />
<glyph unicode="C" horiz-adv-x="1384" d="M104 682q0 154 55 287t149 224.5t223.5 143.5t275.5 52q329 0 518 -271l-141 -80q-60 90 -161 144.5t-216 54.5q-226 0 -376 -155.5t-150 -399.5q0 -159 69 -286.5t189 -198t268 -70.5q114 0 215.5 55t161.5 144l143 -78q-199 -273 -520 -273q-146 0 -275.5 52 t-223.5 143.5t-149 224.5t-55 287z" />
<glyph unicode="D" horiz-adv-x="1433" d="M160 0v1366h467q208 0 369 -90.5t246 -245.5t85 -348q0 -145 -50 -270.5t-140 -216.5t-221.5 -143t-288.5 -52h-467zM330 152h297q161 0 282 72t181.5 191t60.5 267q0 150 -59.5 269t-180 191t-284.5 72h-297v-1062z" />
<glyph unicode="E" horiz-adv-x="1165" d="M160 0v1366h895v-152h-725v-440h710v-151h-710v-471h725v-152h-895z" />
<glyph unicode="F" horiz-adv-x="1128" d="M160 0v1366h895v-152h-725v-440h710v-151h-710v-623h-170z" />
<glyph unicode="G" horiz-adv-x="1460" d="M104 682q0 156 55.5 289.5t150 224.5t223.5 142t274 51q324 0 530 -254l-135 -86q-66 86 -170.5 137t-224.5 51q-226 0 -376 -155.5t-150 -399.5q0 -159 69 -286.5t189 -198t268 -70.5q113 0 211 43.5t158 103.5v277h-471v151h638v-491q-99 -111 -236.5 -174.5 t-299.5 -63.5q-145 0 -274 51.5t-223.5 143t-150 225t-55.5 289.5z" />
<glyph unicode="H" horiz-adv-x="1458" d="M160 0v1366h170v-588h798v588h170v-1366h-170v627h-798v-627h-170z" />
<glyph unicode="I" horiz-adv-x="489" d="M160 0v1366h170v-1366h-170z" />
<glyph unicode="J" horiz-adv-x="972" d="M23 133l90 129q107 -135 256 -135q125 0 199.5 79t74.5 208v952h170v-954q0 -143 -58.5 -243.5t-154.5 -147t-221 -46.5q-222 0 -356 158z" />
<glyph unicode="K" horiz-adv-x="1230" d="M160 0v1366h170v-704l604 704h213l-569 -647l620 -719h-213l-518 614l-137 -155v-459h-170z" />
<glyph unicode="L" horiz-adv-x="1009" d="M137 0v1366h170v-1214h635v-152h-805z" />
<glyph unicode="M" horiz-adv-x="1656" d="M160 0v1366h243l426 -1053l424 1053h244v-1366h-170v1149l-463 -1149h-69l-465 1149v-1149h-170z" />
<glyph unicode="N" horiz-adv-x="1449" d="M160 0v1366h174l786 -1067v1067h170v-1366h-164l-796 1090v-1090h-170z" />
<glyph unicode="O" horiz-adv-x="1566" d="M104 682q0 200 84.5 361t240 253.5t353.5 92.5t354 -92.5t241 -253.5t85 -361t-85 -361t-241 -253.5t-354 -92.5t-353.5 92.5t-240 253.5t-84.5 361zM281 682q0 -158 60.5 -284t175.5 -198.5t265 -72.5t265.5 72.5t177 198.5t61.5 284q0 242 -139 398.5t-365 156.5 q-227 0 -364 -156t-137 -399z" />
<glyph unicode="P" horiz-adv-x="1202" d="M160 0v1366h549q198 0 313 -118.5t115 -293.5q0 -174 -115.5 -292.5t-312.5 -118.5h-379v-543h-170zM330 694h358q121 0 197 72t76 188t-76 188t-197 72h-358v-520z" />
<glyph unicode="Q" horiz-adv-x="1566" d="M104 682q0 200 84.5 361t240 253.5t353.5 92.5t354 -92.5t241 -253.5t85 -361q0 -305 -188 -506l129 -137l-117 -102l-133 141q-159 -103 -371 -103q-198 0 -353.5 92.5t-240 253.5t-84.5 361zM281 682q0 -158 60.5 -284t175.5 -198.5t265 -72.5q145 0 260 70l-194 211 l119 100l192 -209q127 156 127 383q0 242 -139 398.5t-365 156.5q-227 0 -364 -156t-137 -399z" />
<glyph unicode="R" horiz-adv-x="1247" d="M160 0v1366h549q190 0 310 -112.5t120 -299.5q0 -89 -29.5 -163t-79.5 -122.5t-113.5 -77t-134.5 -34.5l369 -557h-201l-346 543h-274v-543h-170zM330 692h358q121 0 198 73t77 189t-76.5 188t-198.5 72h-358v-522z" />
<glyph unicode="S" horiz-adv-x="1200" d="M78 193l102 131q74 -86 183.5 -141.5t244.5 -55.5q87 0 152.5 22t101 58t52 75.5t16.5 82.5q0 56 -27.5 98.5t-74.5 69t-107.5 47t-127.5 38.5t-134.5 37t-128 48t-107.5 67.5t-74.5 99t-27.5 138.5q0 168 133.5 274.5t337.5 106.5q300 0 483 -193l-102 -125 q-145 164 -395 164q-122 0 -201.5 -60.5t-79.5 -156.5q0 -49 27.5 -86t74.5 -60.5t107.5 -42.5t128 -37t134.5 -38.5t127.5 -52t107.5 -73t74.5 -105.5t27.5 -146q0 -78 -28 -147t-85 -127.5t-157.5 -93t-233.5 -34.5q-169 0 -301.5 58.5t-222.5 159.5z" />
<glyph unicode="T" horiz-adv-x="1167" d="M66 1214v152h1036v-152h-434v-1214h-170v1214h-432z" />
<glyph unicode="U" horiz-adv-x="1435" d="M160 530v836h172v-831q0 -191 99.5 -299.5t285.5 -108.5t286.5 109t100.5 299v831h172v-834q0 -261 -143 -409t-416 -148q-271 0 -414 148.5t-143 406.5z" />
<glyph unicode="V" d="M18 1366h195l461 -1180l461 1180h194l-549 -1366h-211z" />
<glyph unicode="W" horiz-adv-x="1808" d="M29 1366h188l303 -1139l314 1139h141l313 -1139l301 1139h191l-391 -1366h-185l-301 1102l-301 -1102h-184z" />
<glyph unicode="X" horiz-adv-x="1335" d="M25 0l532 700l-502 666h207l406 -545l403 545h209l-502 -664l533 -702h-207l-436 582l-437 -582h-206z" />
<glyph unicode="Y" horiz-adv-x="1282" d="M18 1366h199l424 -635l424 635h199l-537 -788v-578h-170v578z" />
<glyph unicode="Z" horiz-adv-x="1198" d="M98 0v141l768 1073h-768v152h987v-141l-770 -1073h785v-152h-1002z" />
<glyph unicode="[" horiz-adv-x="497" d="M82 -389v1778h381v-113h-260v-1552h260v-113h-381z" />
<glyph unicode="\" horiz-adv-x="606" d="M0 1407h121l485 -1448h-121z" />
<glyph unicode="]" horiz-adv-x="497" d="M35 -276h262v1552h-262v113h383v-1778h-383v113z" />
<glyph unicode="^" horiz-adv-x="884" d="M39 682l346 684h117l344 -684h-127l-277 571l-276 -571h-127z" />
<glyph unicode="_" horiz-adv-x="1155" d="M-6 -82h1167v-113h-1167v113z" />
<glyph unicode="`" horiz-adv-x="462" d="M0 1434h160l303 -295h-117z" />
<glyph unicode="a" horiz-adv-x="1171" d="M14 0l478 1126h190l475 -1126h-178l-105 246h-575l-104 -246h-181zM348 387h477l-237 571z" />
<glyph unicode="b" horiz-adv-x="1134" d="M154 0v1126h530q155 0 245.5 -79.5t90.5 -208.5q0 -96 -55.5 -164.5t-137.5 -91.5q92 -22 154.5 -101t62.5 -176q0 -138 -93 -221.5t-255 -83.5h-542zM315 141h359q95 0 149 48.5t54 132.5q0 77 -54 130.5t-149 53.5h-359v-365zM315 647h351q89 0 138.5 47.5t49.5 120.5 q0 78 -49.5 124t-138.5 46h-351v-338z" />
<glyph unicode="c" horiz-adv-x="1191" d="M96 565q0 170 79 304.5t216 208t307 73.5q145 0 258.5 -61.5t188.5 -169.5l-129 -72q-52 74 -136.5 118t-181.5 44q-187 0 -312.5 -125.5t-125.5 -319.5t125.5 -321t312.5 -127q97 0 183.5 44.5t134.5 117.5l131 -72q-169 -232 -449 -232q-170 0 -307 74t-216 209.5 t-79 306.5z" />
<glyph unicode="d" horiz-adv-x="1259" d="M154 0v1126h409q271 0 435.5 -160.5t164.5 -404.5q0 -119 -42.5 -222t-119 -178t-189.5 -118t-249 -43h-409zM315 141h248q203 0 318.5 119.5t115.5 300.5q0 185 -114 304.5t-320 119.5h-248v-844z" />
<glyph unicode="e" horiz-adv-x="1042" d="M154 0v1126h782v-141h-621v-338h611v-141h-611v-365h621v-141h-782z" />
<glyph unicode="f" horiz-adv-x="1005" d="M154 0v1126h782v-141h-621v-338h611v-141h-611v-506h-161z" />
<glyph unicode="g" horiz-adv-x="1282" d="M96 563q0 171 80.5 306.5t217.5 208.5t304 73q275 0 453 -207l-125 -84q-57 68 -143 108t-185 40q-187 0 -311.5 -125.5t-124.5 -319.5q0 -193 124.5 -319.5t311.5 -126.5q94 0 172.5 34t128.5 82v220h-348v135h508v-416q-86 -92 -205 -144.5t-256 -52.5q-167 0 -304 73 t-217.5 208.5t-80.5 306.5z" />
<glyph unicode="h" horiz-adv-x="1300" d="M154 0v1126h161v-477h674v477h158v-1126h-158v508h-674v-508h-161z" />
<glyph unicode="i" horiz-adv-x="468" d="M154 0v1126h161v-1126h-161z" />
<glyph unicode="j" horiz-adv-x="864" d="M16 115l78 116q89 -114 219 -114q108 0 172 63.5t64 167.5v778h160v-790q0 -177 -106.5 -269t-278.5 -92q-192 0 -308 140z" />
<glyph unicode="k" horiz-adv-x="1093" d="M154 0v1126h161v-563l508 563h201l-496 -534l537 -592h-199l-442 498l-109 -119v-379h-161z" />
<glyph unicode="l" horiz-adv-x="937" d="M154 0v1126h161v-985h545v-141h-706z" />
<glyph unicode="m" horiz-adv-x="1472" d="M154 0v1126h219l362 -858l365 858h219v-1126h-160v909l-387 -909h-70l-387 909v-909h-161z" />
<glyph unicode="n" horiz-adv-x="1294" d="M154 0v1126h168l659 -860v860h160v-1126h-162l-666 877v-877h-159z" />
<glyph unicode="o" horiz-adv-x="1355" d="M96 563q0 124 42 232t117 186.5t184.5 124t238.5 45.5t238.5 -45.5t184.5 -124t117 -186.5t42 -232t-42 -232t-117 -186.5t-184.5 -124t-238.5 -45.5t-238.5 45.5t-184.5 124t-117 186.5t-42 232zM260 563q0 -194 115 -320t303 -126t303 126t115 320q0 195 -115 321 t-303 126t-303 -126t-115 -321z" />
<glyph unicode="p" horiz-adv-x="1071" d="M154 0v1126h483q175 0 273 -99t98 -245q0 -70 -23.5 -131.5t-68.5 -109.5t-117 -75.5t-162 -27.5h-322v-438h-161zM315 578h308q107 0 164 56.5t57 147.5q0 92 -58 147.5t-163 55.5h-308v-407z" />
<glyph unicode="q" horiz-adv-x="1355" d="M96 563q0 124 42 232t117 186.5t184.5 124t238.5 45.5t238.5 -45.5t184.5 -124t117 -186.5t42 -232q0 -125 -42.5 -234.5t-121.5 -189.5l104 -114l-100 -84l-109 116q-136 -82 -313 -82q-129 0 -238.5 45.5t-184.5 124t-117 186.5t-42 232zM260 563q0 -194 115 -320 t303 -126q121 0 213 53l-156 172l101 86l155 -172q105 124 105 307q0 195 -115 321t-303 126t-303 -126t-115 -321z" />
<glyph unicode="r" horiz-adv-x="1116" d="M154 0v1126h483q174 0 273.5 -97t99.5 -247q0 -144 -84.5 -233t-220.5 -98l319 -451h-188l-295 438h-226v-438h-161zM315 578h308q107 0 164 56t57 148t-58 147.5t-163 55.5h-308v-407z" />
<glyph unicode="s" horiz-adv-x="1032" d="M66 152l86 120q63 -68 159 -112.5t209 -44.5q139 0 207 55t68 137q0 51 -30 88t-78.5 57.5t-111 39t-127 32t-127 38t-111 55.5t-78.5 86t-30 128q0 139 117 229.5t291 90.5q263 0 422 -162l-84 -112q-62 67 -152 101t-186 34q-106 0 -174 -50t-68 -128q0 -39 23.5 -68 t63.5 -47.5t92 -33t109 -29t114 -31t109 -42.5t92 -60.5t63.5 -88t23.5 -121.5q0 -150 -112.5 -244t-329.5 -94q-143 0 -260 49t-190 128z" />
<glyph unicode="t" horiz-adv-x="966" d="M53 985v141h858v-141h-348v-985h-160v985h-350z" />
<glyph unicode="u" horiz-adv-x="1275" d="M154 434v692h161v-682q0 -153 83.5 -240t238.5 -87t239.5 87t84.5 240v682h161v-692q0 -214 -124 -336.5t-361 -122.5q-236 0 -359.5 123t-123.5 336z" />
<glyph unicode="v" horiz-adv-x="1171" d="M14 1126h183l391 -948l391 948h178l-475 -1126h-190z" />
<glyph unicode="w" horiz-adv-x="1564" d="M20 1126h179l252 -907l264 907h135l262 -909l254 909h176l-338 -1126h-168l-256 883l-252 -883h-170z" />
<glyph unicode="x" horiz-adv-x="1161" d="M18 0l461 578l-434 548h193l342 -440l344 440h192l-432 -546l461 -580h-193l-372 469l-369 -469h-193z" />
<glyph unicode="y" horiz-adv-x="1120" d="M14 1126h187l364 -512l357 512h184l-463 -649v-477h-160v477z" />
<glyph unicode="z" horiz-adv-x="1056" d="M82 0v121l666 864h-666v141h881v-120l-666 -865h680v-141h-895z" />
<glyph unicode="{" horiz-adv-x="534" d="M10 449v102q53 0 81 40t28 101v420q0 123 76 200t178 77h127v-113h-127q-55 0 -95 -46t-40 -116v-434q0 -140 -93 -180q93 -40 93 -181v-432q0 -69 40 -116t95 -47h127v-113h-127q-102 0 -178 76.5t-76 197.5v422q0 61 -28 101.5t-81 40.5z" />
<glyph unicode="|" horiz-adv-x="432" d="M160 -41v1448h112v-1448h-112z" />
<glyph unicode="}" horiz-adv-x="534" d="M35 -276h125q56 0 96.5 47t40.5 116v432q0 142 92 181q-92 39 -92 180v434q0 71 -40 116.5t-97 45.5h-125v113h125q103 0 179.5 -77t76.5 -200v-420q0 -61 27.5 -101t78.5 -40v-102q-51 0 -78.5 -40.5t-27.5 -101.5v-422q0 -121 -76.5 -197.5t-179.5 -76.5h-125v113z" />
<glyph unicode="~" horiz-adv-x="1030" d="M55 879q8 81 19 146.5t32.5 131t51.5 109t76 71t104 27.5q52 0 92 -21.5t63.5 -56t41.5 -76.5t32 -83.5t29.5 -76t39.5 -56t56 -21.5q71 0 110 102t58 291l113 -12q-8 -82 -18.5 -146.5t-32 -131.5t-50.5 -110.5t-75 -71.5t-105 -28q-60 0 -104.5 29t-66.5 72t-42.5 93.5 t-35 93.5t-41.5 72t-64 29t-65 -28t-48 -82t-33 -122.5t-22 -158.5z" />
<glyph unicode="&#xa1;" horiz-adv-x="376" d="M76 1034q0 46 33 79.5t79 33.5t79.5 -33.5t33.5 -79.5q0 -44 -33.5 -78t-79.5 -34q-45 0 -78.5 33.5t-33.5 78.5zM100 0l29 786h119l28 -786h-176z" />
<glyph unicode="&#xa2;" horiz-adv-x="1191" d="M96 565q0 240 151 400t386 182v121h121v-121q243 -20 391 -227l-129 -72q-94 133 -262 158v-885q81 10 151 52.5t111 105.5l131 -72q-153 -207 -393 -227v-168h-121v168q-235 21 -386 182t-151 403zM260 565q0 -177 105 -299.5t268 -144.5v885q-163 -24 -268 -145 t-105 -296z" />
<glyph unicode="&#xa3;" horiz-adv-x="870" d="M29 459v98h145q-46 65 -72 125t-26 131q0 144 109.5 240t267.5 96q114 0 205.5 -48.5t136.5 -135.5l-121 -66q-29 63 -84 97t-125 34q-97 0 -164.5 -60t-67.5 -157q0 -44 17.5 -91t33 -73t50.5 -77q7 -10 10 -15h277v-98h-220q25 -59 25 -105q0 -59 -30.5 -111t-78.5 -83 q18 6 45 6q58 0 139.5 -28.5t123.5 -28.5q49 0 93 17.5t66 45.5l70 -115q-37 -35 -100 -57.5t-138 -22.5t-153.5 35t-143.5 35q-66 0 -192 -63l-55 110q107 47 162 106.5t55 125.5q0 61 -45 133h-215z" />
<glyph unicode="&#xa5;" horiz-adv-x="1120" d="M14 1126h187l364 -512l357 512h184l-395 -555h358v-96h-426v-145h426v-99h-426v-231h-160v231h-434v99h434v145h-434v96h367z" />
<glyph unicode="&#xa6;" horiz-adv-x="432" d="M160 -41v647h112v-647h-112zM160 760v647h112v-647h-112z" />
<glyph unicode="&#xa7;" horiz-adv-x="958" d="M70 -6l77 100q51 -62 135 -103.5t187 -41.5q107 0 173.5 47t66.5 129q0 51 -34 86t-88 54.5t-119 35.5t-130.5 36.5t-119.5 49t-88 82t-34 127.5q0 101 66.5 167t167.5 93q-113 36 -173.5 96t-60.5 158q0 117 99.5 196.5t267.5 79.5q236 0 366 -145l-71 -92 q-50 61 -127.5 92t-161.5 31q-101 0 -163 -45t-62 -119q0 -36 21 -63t56.5 -43.5t81.5 -29.5t96.5 -25t101 -26t96.5 -36t81.5 -52.5t56.5 -78t21 -109.5q0 -86 -48 -153.5t-140 -106.5q92 -36 140 -95.5t48 -154.5q0 -140 -107 -220.5t-280 -80.5q-139 0 -230.5 42.5 t-168.5 117.5zM244 610q0 -53 43.5 -90.5t86 -51.5t134.5 -37q18 -5 27 -7q85 37 127.5 85t42.5 118q0 42 -19 73.5t-56 53t-71.5 34t-85.5 25.5q-126 -32 -177.5 -82t-51.5 -121z" />
<glyph unicode="&#xa8;" horiz-adv-x="557" d="M-29 1237q0 39 28.5 66.5t68.5 27.5q39 0 66.5 -27.5t27.5 -66.5q0 -38 -28 -66t-66 -28q-40 0 -68.5 28t-28.5 66zM395 1237q0 39 27.5 66.5t66.5 27.5q40 0 68.5 -27.5t28.5 -66.5q0 -38 -28.5 -66t-68.5 -28q-38 0 -66 28t-28 66z" />
<glyph unicode="&#xa9;" horiz-adv-x="1593" d="M90 684q0 192 95 355t258 257.5t354 94.5q144 0 275 -56t225 -150.5t150 -225.5t56 -275q0 -143 -56 -274t-150 -226t-225 -151t-275 -56q-191 0 -354 95t-258 258t-95 354zM154 684q0 -130 51.5 -249t137.5 -205t205 -137.5t249 -51.5t249.5 51.5t205.5 138t137 205 t51 248.5q0 174 -86.5 322t-234.5 234.5t-322 86.5q-130 0 -248.5 -51t-205 -137t-138 -205.5t-51.5 -249.5zM375 688q0 186 123.5 310t302.5 124q185 0 299 -133l-51 -51q-39 54 -107 85.5t-141 31.5q-143 0 -246.5 -104t-103.5 -265q0 -158 104.5 -264.5t245.5 -106.5 q73 0 140.5 32.5t107.5 86.5l53 -51q-116 -135 -301 -135q-178 0 -302 127t-124 313z" />
<glyph unicode="&#xaa;" horiz-adv-x="774" d="M84 864q0 100 68.5 155.5t160.5 55.5q139 0 222 -86v113q0 61 -47.5 97t-116.5 36q-123 0 -201 -94l-53 78q105 108 268 108q117 0 191.5 -55t74.5 -172v-432h-116v71q-85 -88 -222 -88q-91 0 -160 58t-69 155zM203 864q0 -61 43.5 -98t111.5 -37q53 0 100.5 21t76.5 57 v115q-29 36 -76.5 56.5t-100.5 20.5q-68 0 -111.5 -37.5t-43.5 -97.5z" />
<glyph unicode="&#xab;" horiz-adv-x="899" d="M61 498l328 362h154l-328 -362l328 -369h-154zM356 498l328 362h154l-328 -362l328 -369h-154z" />
<glyph unicode="&#xac;" horiz-adv-x="1032" d="M59 827v109h904v-504h-113v395h-791z" />
<glyph unicode="&#xad;" horiz-adv-x="614" d="M61 428v135h492v-135h-492z" />
<glyph unicode="&#xae;" horiz-adv-x="1011" d="M72 952q0 181 127 307.5t307 126.5q119 0 219 -57.5t157.5 -157.5t57.5 -219q0 -180 -126.5 -307t-307.5 -127q-180 0 -307 127t-127 307zM131 952q0 -154 110 -264t265 -110t265 110t110 264q0 158 -109.5 266.5t-265.5 108.5t-265.5 -108.5t-109.5 -266.5zM340 702v498 h203q65 0 111 -42t46 -109q0 -72 -46 -110t-81 -38l134 -199h-82l-129 197h-90v-197h-66zM406 958h137q34 0 62 27t28 64q0 40 -28 67t-62 27h-137v-185z" />
<glyph unicode="&#xaf;" horiz-adv-x="743" d="M0 1210v99h743v-99h-743z" />
<glyph unicode="&#xb0;" horiz-adv-x="593" d="M47 1137q0 103 73 176t177 73q103 0 176.5 -73t73.5 -176q0 -104 -73.5 -177t-176.5 -73q-104 0 -177 73t-73 177zM147 1137q0 -63 43.5 -106.5t106.5 -43.5q62 0 107 44t45 106q0 61 -45 106t-107 45q-63 0 -106.5 -44.5t-43.5 -106.5z" />
<glyph unicode="&#xb1;" horiz-adv-x="1021" d="M59 0v109h904v-109h-904zM59 664v106h394v424h116v-424h394v-106h-394v-437h-116v437h-394z" />
<glyph unicode="&#xb2;" horiz-adv-x="794" d="M100 1565q49 62 130 95.5t171 33.5q78 0 142.5 -24.5t107.5 -81t43 -136.5q0 -60 -28.5 -119.5t-87.5 -122t-127 -118.5t-168 -129h415v-101h-596v92q256 184 362.5 290t106.5 200q0 73 -51 111t-123 38t-133.5 -30.5t-95.5 -75.5z" />
<glyph unicode="&#xb3;" horiz-adv-x="794" d="M86 981l68 78q40 -51 103.5 -81t133.5 -30q87 0 138 39t51 105q0 74 -58 107.5t-155 33.5q-70 0 -82 -2v102q14 -2 82 -2q91 0 145.5 31.5t54.5 99.5q0 62 -52.5 96.5t-131.5 34.5q-132 0 -223 -98l-64 72q111 127 299 127q131 0 212 -59.5t81 -159.5q0 -82 -55.5 -130 t-126.5 -59q31 -3 63.5 -16.5t63 -37t50 -62t19.5 -85.5q0 -106 -83 -171.5t-226 -65.5q-104 0 -184.5 37t-122.5 96z" />
<glyph unicode="&#xb4;" horiz-adv-x="462" d="M0 1139l303 295h160l-346 -295h-117z" />
<glyph unicode="&#xb5;" horiz-adv-x="1128" d="M154 -377v1366h153v-651q0 -124 57.5 -176.5t165.5 -52.5q85 0 165.5 44.5t125.5 108.5v727h154v-989h-154v139q-62 -70 -155 -117t-197 -47q-93 0 -162 29v-381h-153z" />
<glyph unicode="&#xb6;" horiz-adv-x="919" d="M55 1014q0 146 103.5 249t249.5 103h366v-1571h-92v1479h-182v-1479h-92v867q-146 0 -249.5 103t-103.5 249z" />
<glyph unicode="&#xb7;" horiz-adv-x="473" d="M123 502q0 44 33.5 77t79.5 33t79 -33t33 -77q0 -46 -33 -79.5t-79 -33.5t-79.5 33.5t-33.5 79.5z" />
<glyph unicode="&#xb8;" horiz-adv-x="419" d="M0 -330l39 78q73 -59 164 -59q53 0 89 23t36 63q0 33 -19.5 52t-56.5 19q-51 0 -78 -34l-68 38l64 173h92l-53 -136q29 23 76 23q59 0 97 -37.5t38 -99.5q0 -74 -61 -119t-152 -45q-63 0 -118.5 17.5t-88.5 43.5z" />
<glyph unicode="&#xb9;" horiz-adv-x="481" d="M29 1456l221 225h108v-819h-122v660l-136 -142z" />
<glyph unicode="&#xba;" horiz-adv-x="829" d="M82 989q0 143 91.5 240.5t240.5 97.5q151 0 242.5 -97t91.5 -241q0 -143 -91.5 -240.5t-242.5 -97.5q-148 0 -240 98t-92 240zM205 989q0 -103 56 -171t153 -68q98 0 155.5 68t57.5 171t-57.5 170.5t-155.5 67.5q-97 0 -153 -67.5t-56 -170.5z" />
<glyph unicode="&#xbb;" horiz-adv-x="899" d="M61 129l328 369l-328 362h154l328 -362l-328 -369h-154zM356 129l328 369l-328 362h154l328 -362l-328 -369h-154z" />
<glyph unicode="&#xbc;" horiz-adv-x="1576" d="M29 1141l221 225h108v-819h-122v659l-136 -141zM223 0l873 1366h112l-874 -1366h-111zM860 205v92l354 522h170v-514h117v-100h-117v-205h-122v205h-402zM983 305h279v406z" />
<glyph unicode="&#xbd;" horiz-adv-x="1652" d="M29 1141l221 225h108v-819h-122v659l-136 -141zM223 0l873 1366h112l-874 -1366h-111zM958 702q49 62 130.5 95.5t171.5 33.5q79 0 143 -24.5t106.5 -80.5t42.5 -136q0 -48 -20.5 -97.5t-54 -94.5t-88 -97t-112 -98t-136.5 -103h415v-100h-595v92q256 184 362.5 290 t106.5 200q0 73 -51 111t-124 38q-72 0 -133.5 -30.5t-95.5 -75.5z" />
<glyph unicode="&#xbe;" horiz-adv-x="1798" d="M86 666l68 77q40 -51 103.5 -80.5t133.5 -29.5q88 0 138.5 38.5t50.5 104.5q0 74 -58 108t-155 34q-64 0 -82 -3v103q14 -2 82 -2q91 0 145.5 31.5t54.5 99.5q0 62 -52.5 96.5t-131.5 34.5q-132 0 -223 -98l-64 71q111 127 299 127q131 0 212 -59.5t81 -159.5 q0 -82 -55.5 -129.5t-126.5 -58.5q31 -3 63.5 -16.5t63 -37t50 -62t19.5 -85.5q0 -106 -83 -172t-226 -66q-104 0 -184.5 37.5t-122.5 96.5zM444 0l873 1366h113l-875 -1366h-111zM1083 205v92l355 522h170v-514h116v-100h-116v-205h-123v205h-402zM1206 305h279v406z" />
<glyph unicode="&#xbf;" horiz-adv-x="811" d="M47 238q0 69 35.5 124.5t86 91t101 67t86 68t35.5 77.5q0 45 -53 82l117 49q73 -57 73 -135q0 -57 -33.5 -103.5t-80.5 -78t-94.5 -61.5t-81 -69t-33.5 -86q0 -67 55.5 -109t153.5 -42q181 0 295 141l82 -96q-68 -86 -167.5 -133.5t-222.5 -47.5q-161 0 -257.5 75.5 t-96.5 185.5zM307 1034q0 46 33.5 79.5t79.5 33.5t79 -33.5t33 -79.5t-33 -79t-79 -33t-79.5 33t-33.5 79z" />
<glyph unicode="&#xc0;" d="M18 0l551 1366h211l549 -1366h-194l-121 305h-680l-121 -305h-195zM348 1786h160l303 -295h-117zM385 455h580l-291 737z" />
<glyph unicode="&#xc1;" d="M18 0l551 1366h211l549 -1366h-194l-121 305h-680l-121 -305h-195zM385 455h580l-291 737zM541 1491l303 295h160l-347 -295h-116z" />
<glyph unicode="&#xc2;" d="M18 0l551 1366h211l549 -1366h-194l-121 305h-680l-121 -305h-195zM385 455h580l-291 737zM406 1491l194 295h148l200 -295h-104l-170 217l-164 -217h-104z" />
<glyph unicode="&#xc3;" d="M18 0l551 1366h211l549 -1366h-194l-121 305h-680l-121 -305h-195zM354 1499q0 123 52.5 199t146.5 76q34 0 62.5 -14t46.5 -35t35.5 -45.5t31.5 -45.5t33.5 -35t42.5 -14q44 0 71 44t27 132h92q0 -123 -52 -198.5t-146 -75.5q-41 0 -73 19.5t-52 47t-38 55t-40 47 t-49 19.5q-44 0 -71.5 -44t-27.5 -132h-92zM385 455h580l-291 737z" />
<glyph unicode="&#xc4;" d="M18 0l551 1366h211l549 -1366h-194l-121 305h-680l-121 -305h-195zM369 1583q0 40 28 67t68 27q39 0 66.5 -27.5t27.5 -66.5q0 -38 -28 -66t-66 -28q-40 0 -68 28t-28 66zM385 455h580l-291 737zM793 1583q0 39 27.5 66.5t66.5 27.5q40 0 68 -27t28 -67q0 -38 -28 -66 t-68 -28q-38 0 -66 28t-28 66z" />
<glyph unicode="&#xc5;" d="M18 0l551 1366h211l549 -1366h-194l-121 305h-680l-121 -305h-195zM385 455h580l-291 737zM473 1620q0 83 60 143t143 60t140.5 -59.5t57.5 -143.5t-57.5 -143.5t-140.5 -59.5t-143 60t-60 143zM555 1620q0 -50 35 -85.5t86 -35.5q49 0 84 35.5t35 85.5t-35 85.5 t-84 35.5q-51 0 -86 -35.5t-35 -85.5z" />
<glyph unicode="&#xc6;" horiz-adv-x="1941" d="M14 0l852 1366h963v-152h-725v-440h711v-151h-711v-471h725v-152h-895v305h-537l-188 -305h-195zM479 455h455v737z" />
<glyph unicode="&#xc7;" horiz-adv-x="1384" d="M104 682q0 154 55 287t149 224.5t223.5 143.5t275.5 52q329 0 518 -271l-141 -80q-60 90 -161 144.5t-216 54.5q-226 0 -376 -155.5t-150 -399.5q0 -159 69 -286.5t189 -198t268 -70.5q114 0 215.5 55t161.5 144l143 -78q-194 -265 -500 -273l-30 -79q27 22 75 22 q59 0 97.5 -37.5t38.5 -99.5q0 -74 -61 -119t-152 -45q-63 0 -118.5 17.5t-88.5 43.5l39 78q73 -59 164 -59q53 0 88.5 23t35.5 63q0 33 -19 52.5t-56 19.5q-51 0 -78 -35l-68 39l43 121q-134 12 -250.5 68t-201 146t-133 216.5t-48.5 271.5z" />
<glyph unicode="&#xc8;" horiz-adv-x="1165" d="M160 0v1366h895v-152h-725v-440h710v-151h-710v-471h725v-152h-895zM281 1786h159l303 -295h-116z" />
<glyph unicode="&#xc9;" horiz-adv-x="1165" d="M160 0v1366h895v-152h-725v-440h710v-151h-710v-471h725v-152h-895zM471 1491l303 295h160l-346 -295h-117z" />
<glyph unicode="&#xca;" horiz-adv-x="1165" d="M160 0v1366h895v-152h-725v-440h710v-151h-710v-471h725v-152h-895zM334 1491l194 295h148l201 -295h-105l-170 217l-164 -217h-104z" />
<glyph unicode="&#xcb;" horiz-adv-x="1165" d="M160 0v1366h895v-152h-725v-440h710v-151h-710v-471h725v-152h-895zM299 1583q0 40 28 67t68 27q39 0 66.5 -27.5t27.5 -66.5q0 -38 -28 -66t-66 -28q-40 0 -68 28t-28 66zM723 1583q0 39 27.5 66.5t66.5 27.5q40 0 68 -27t28 -67q0 -38 -28 -66t-68 -28q-38 0 -66 28 t-28 66z" />
<glyph unicode="&#xcc;" horiz-adv-x="489" d="M-84 1786h160l303 -295h-117zM160 0v1366h170v-1366h-170z" />
<glyph unicode="&#xcd;" horiz-adv-x="489" d="M113 1491l303 295h159l-346 -295h-116zM160 0v1366h170v-1366h-170z" />
<glyph unicode="&#xce;" horiz-adv-x="489" d="M-27 1491l195 295h147l201 -295h-104l-170 217l-164 -217h-105zM160 0v1366h170v-1366h-170z" />
<glyph unicode="&#xcf;" horiz-adv-x="489" d="M-63 1583q0 40 28 67t68 27q39 0 66.5 -27.5t27.5 -66.5q0 -38 -28 -66t-66 -28q-40 0 -68 28t-28 66zM160 0v1366h170v-1366h-170zM360 1583q0 39 28 66.5t67 27.5q40 0 68 -27t28 -67q0 -38 -28 -66t-68 -28q-38 0 -66.5 28t-28.5 66z" />
<glyph unicode="&#xd0;" horiz-adv-x="1490" d="M20 612v125h197v629h467q208 0 369 -90.5t246 -245.5t85 -348q0 -145 -50 -270.5t-140 -216.5t-221.5 -143t-288.5 -52h-467v612h-197zM387 152h297q161 0 282 72t181.5 191t60.5 267q0 150 -59.5 269t-180 191t-284.5 72h-297v-477h346v-125h-346v-460z" />
<glyph unicode="&#xd1;" horiz-adv-x="1449" d="M160 0v1366h174l786 -1067v1067h170v-1366h-164l-796 1090v-1090h-170zM401 1499q0 123 52.5 199t146.5 76q34 0 62.5 -14t46.5 -35t35.5 -45.5t31.5 -45.5t33.5 -35t42.5 -14q44 0 71 44t27 132h92q0 -123 -52 -198.5t-146 -75.5q-41 0 -73 19.5t-52 47t-38 55t-40 47 t-49 19.5q-44 0 -71 -44t-27 -132h-93z" />
<glyph unicode="&#xd2;" horiz-adv-x="1566" d="M104 682q0 200 84.5 361t240 253.5t353.5 92.5t354 -92.5t241 -253.5t85 -361t-85 -361t-241 -253.5t-354 -92.5t-353.5 92.5t-240 253.5t-84.5 361zM281 682q0 -158 60.5 -284t175.5 -198.5t265 -72.5t265.5 72.5t177 198.5t61.5 284q0 242 -139 398.5t-365 156.5 q-227 0 -364 -156t-137 -399zM463 1786h160l303 -295h-117z" />
<glyph unicode="&#xd3;" horiz-adv-x="1566" d="M104 682q0 200 84.5 361t240 253.5t353.5 92.5t354 -92.5t241 -253.5t85 -361t-85 -361t-241 -253.5t-354 -92.5t-353.5 92.5t-240 253.5t-84.5 361zM281 682q0 -158 60.5 -284t175.5 -198.5t265 -72.5t265.5 72.5t177 198.5t61.5 284q0 242 -139 398.5t-365 156.5 q-227 0 -364 -156t-137 -399zM651 1491l303 295h160l-346 -295h-117z" />
<glyph unicode="&#xd4;" horiz-adv-x="1566" d="M104 682q0 200 84.5 361t240 253.5t353.5 92.5t354 -92.5t241 -253.5t85 -361t-85 -361t-241 -253.5t-354 -92.5t-353.5 92.5t-240 253.5t-84.5 361zM281 682q0 -158 60.5 -284t175.5 -198.5t265 -72.5t265.5 72.5t177 198.5t61.5 284q0 242 -139 398.5t-365 156.5 q-227 0 -364 -156t-137 -399zM516 1491l195 295h147l201 -295h-105l-170 217l-163 -217h-105z" />
<glyph unicode="&#xd5;" horiz-adv-x="1566" d="M104 682q0 200 84.5 361t240 253.5t353.5 92.5t354 -92.5t241 -253.5t85 -361t-85 -361t-241 -253.5t-354 -92.5t-353.5 92.5t-240 253.5t-84.5 361zM281 682q0 -158 60.5 -284t175.5 -198.5t265 -72.5t265.5 72.5t177 198.5t61.5 284q0 242 -139 398.5t-365 156.5 q-227 0 -364 -156t-137 -399zM463 1499q0 123 52.5 199t146.5 76q41 0 72.5 -19.5t51.5 -47t38 -55.5t40 -47.5t49 -19.5q44 0 71.5 44t27.5 132h92q0 -123 -52.5 -198.5t-146.5 -75.5q-41 0 -73 19.5t-52 47t-38 55t-40 47t-49 19.5q-44 0 -71 -44t-27 -132h-92z" />
<glyph unicode="&#xd6;" horiz-adv-x="1566" d="M104 682q0 200 84.5 361t240 253.5t353.5 92.5t354 -92.5t241 -253.5t85 -361t-85 -361t-241 -253.5t-354 -92.5t-353.5 92.5t-240 253.5t-84.5 361zM281 682q0 -158 60.5 -284t175.5 -198.5t265 -72.5t265.5 72.5t177 198.5t61.5 284q0 242 -139 398.5t-365 156.5 q-227 0 -364 -156t-137 -399zM475 1583q0 40 28 67t68 27q39 0 67 -27.5t28 -66.5q0 -38 -28.5 -66t-66.5 -28q-40 0 -68 28t-28 66zM899 1583q0 39 27.5 66.5t66.5 27.5q40 0 68.5 -27.5t28.5 -66.5q0 -38 -28.5 -66t-68.5 -28q-38 0 -66 28t-28 66z" />
<glyph unicode="&#xd7;" horiz-adv-x="1021" d="M131 379l305 305l-305 305l76 76l303 -305l305 305l76 -76l-303 -305l303 -305l-76 -76l-305 305l-303 -305z" />
<glyph unicode="&#xd8;" horiz-adv-x="1566" d="M104 682q0 200 84.5 361t240 253.5t353.5 92.5q189 0 342 -86l43 63h138l-86 -129q115 -96 179 -240.5t64 -314.5q0 -200 -85 -361t-241 -253.5t-354 -92.5q-194 0 -352 93l-45 -68h-137l90 133q-111 96 -172.5 238t-61.5 311zM281 682q0 -257 149 -412l606 901 q-116 66 -254 66q-227 0 -364 -156t-137 -399zM518 199q113 -72 264 -72q150 0 265.5 72.5t177 198.5t61.5 284q0 128 -41.5 236.5t-118.5 183.5z" />
<glyph unicode="&#xd9;" horiz-adv-x="1435" d="M160 530v836h172v-831q0 -191 99.5 -299.5t285.5 -108.5t286.5 109t100.5 299v831h172v-834q0 -261 -143 -409t-416 -148q-271 0 -414 148.5t-143 406.5zM393 1786h160l303 -295h-117z" />
<glyph unicode="&#xda;" horiz-adv-x="1435" d="M160 530v836h172v-831q0 -191 99.5 -299.5t285.5 -108.5t286.5 109t100.5 299v831h172v-834q0 -261 -143 -409t-416 -148q-271 0 -414 148.5t-143 406.5zM582 1491l303 295h159l-346 -295h-116z" />
<glyph unicode="&#xdb;" horiz-adv-x="1435" d="M160 530v836h172v-831q0 -191 99.5 -299.5t285.5 -108.5t286.5 109t100.5 299v831h172v-834q0 -261 -143 -409t-416 -148q-271 0 -414 148.5t-143 406.5zM457 1491l194 295h148l200 -295h-104l-170 217l-164 -217h-104z" />
<glyph unicode="&#xdc;" horiz-adv-x="1435" d="M160 530v836h172v-831q0 -191 99.5 -299.5t285.5 -108.5t286.5 109t100.5 299v831h172v-834q0 -261 -143 -409t-416 -148q-271 0 -414 148.5t-143 406.5zM412 1583q0 40 28 67t68 27q39 0 66.5 -27.5t27.5 -66.5q0 -38 -28 -66t-66 -28q-40 0 -68 28t-28 66zM836 1583 q0 39 27.5 66.5t66.5 27.5q40 0 68 -27t28 -67q0 -38 -28 -66t-68 -28q-38 0 -66 28t-28 66z" />
<glyph unicode="&#xdd;" horiz-adv-x="1282" d="M18 1366h199l424 -635l424 635h199l-537 -788v-578h-170v578zM514 1491l303 295h160l-346 -295h-117z" />
<glyph unicode="&#xde;" horiz-adv-x="1202" d="M160 0v1366h170v-244h379q198 0 313 -119t115 -294q0 -174 -115.5 -292t-312.5 -118h-379v-299h-170zM330 451h358q122 0 197.5 71.5t75.5 186.5q0 116 -76 189t-197 73h-358v-520z" />
<glyph unicode="&#xdf;" horiz-adv-x="2064" d="M66 152l86 120q63 -68 159 -112.5t209 -44.5q139 0 207 55t68 137q0 51 -30 88t-78.5 57.5t-111 39t-127 32t-127 38t-111 55.5t-78.5 86t-30 128q0 139 117 229.5t291 90.5q263 0 422 -162l-84 -112q-62 67 -152 101t-186 34q-106 0 -174 -50t-68 -128q0 -39 23.5 -68 t63.5 -47.5t92 -33t109 -29t114 -31t109 -42.5t92 -60.5t63.5 -88t23.5 -121.5q0 -150 -112.5 -244t-329.5 -94q-143 0 -260 49t-190 128zM1098 152l86 120q63 -68 159 -112.5t209 -44.5q139 0 207 55t68 137q0 46 -23.5 80t-63.5 55t-92 37.5t-109.5 30t-115 29t-109.5 39 t-92 55.5t-63.5 82.5t-23.5 115.5q0 139 116.5 229.5t290.5 90.5q263 0 422 -162l-84 -112q-62 67 -152 101t-186 34q-106 0 -174 -50t-68 -128q0 -43 29.5 -75t78.5 -49.5t111 -35.5t126.5 -32.5t126.5 -41t111 -60.5t78.5 -92.5t29.5 -134.5q0 -150 -113 -244t-330 -94 q-143 0 -260 49t-190 128z" />
<glyph unicode="&#xe0;" horiz-adv-x="1171" d="M14 0l478 1126h190l475 -1126h-178l-105 246h-575l-104 -246h-181zM260 1536h160l303 -295h-117zM348 387h477l-237 571z" />
<glyph unicode="&#xe1;" horiz-adv-x="1171" d="M14 0l478 1126h190l475 -1126h-178l-105 246h-575l-104 -246h-181zM348 387h477l-237 571zM455 1241l303 295h160l-347 -295h-116z" />
<glyph unicode="&#xe2;" horiz-adv-x="1171" d="M14 0l478 1126h190l475 -1126h-178l-105 246h-575l-104 -246h-181zM317 1241l195 295h147l201 -295h-104l-170 217l-164 -217h-105zM348 387h477l-237 571z" />
<glyph unicode="&#xe3;" horiz-adv-x="1171" d="M14 0l478 1126h190l475 -1126h-178l-105 246h-575l-104 -246h-181zM268 1249q0 123 52.5 199t146.5 76q34 0 62.5 -14t46.5 -35t35.5 -45.5t31.5 -45.5t33.5 -35t42.5 -14q44 0 71 44t27 132h92q0 -123 -52 -198.5t-146 -75.5q-41 0 -73 19.5t-52 47t-38 55t-40 47 t-49 19.5q-44 0 -71.5 -44t-27.5 -132h-92zM348 387h477l-237 571z" />
<glyph unicode="&#xe4;" horiz-adv-x="1171" d="M14 0l478 1126h190l475 -1126h-178l-105 246h-575l-104 -246h-181zM281 1352q0 40 28 67t68 27q39 0 66.5 -27.5t27.5 -66.5q0 -38 -28 -66.5t-66 -28.5q-39 0 -67.5 28.5t-28.5 66.5zM348 387h477l-237 571zM705 1352q0 39 27.5 66.5t66.5 27.5q40 0 68 -27t28 -67 q0 -38 -28.5 -66.5t-67.5 -28.5q-38 0 -66 28.5t-28 66.5z" />
<glyph unicode="&#xe5;" horiz-adv-x="1171" d="M14 0l478 1126h190l475 -1126h-178l-105 246h-575l-104 -246h-181zM348 387h477l-237 571zM387 1440q0 83 60 142.5t143 59.5t140.5 -59t57.5 -143t-57.5 -143.5t-140.5 -59.5t-143 60t-60 143zM469 1440q0 -50 35 -85.5t86 -35.5q49 0 84 35.5t35 85.5t-35 85.5 t-84 35.5q-51 0 -86 -35.5t-35 -85.5z" />
<glyph unicode="&#xe6;" horiz-adv-x="1681" d="M12 0l721 1126h844v-141h-625v-338h613v-141h-613v-365h625v-141h-784v246h-443l-155 -246h-183zM428 387h365v571z" />
<glyph unicode="&#xe7;" horiz-adv-x="1191" d="M96 565q0 170 79 304.5t216 208t307 73.5q145 0 258.5 -61.5t188.5 -169.5l-129 -72q-52 74 -136.5 118t-181.5 44q-187 0 -312.5 -125.5t-125.5 -319.5t125.5 -321t312.5 -127q97 0 183.5 44.5t134.5 117.5l131 -72q-157 -216 -414 -230l-35 -90q29 23 76 23 q59 0 97 -37.5t38 -99.5q0 -74 -61 -119t-152 -45q-63 0 -118.5 17.5t-88.5 43.5l39 78q73 -59 164 -59q53 0 89 23t36 63q0 33 -19.5 52t-56.5 19q-50 0 -77 -34l-68 38l47 127q-239 19 -393 181t-154 407z" />
<glyph unicode="&#xe8;" horiz-adv-x="1042" d="M154 0v1126h782v-141h-621v-338h611v-141h-611v-365h621v-141h-782zM225 1536h160l303 -295h-117z" />
<glyph unicode="&#xe9;" horiz-adv-x="1042" d="M154 0v1126h782v-141h-621v-338h611v-141h-611v-365h621v-141h-782zM418 1241l303 295h160l-346 -295h-117z" />
<glyph unicode="&#xea;" horiz-adv-x="1042" d="M154 0v1126h782v-141h-621v-338h611v-141h-611v-365h621v-141h-782zM283 1241l194 295h148l200 -295h-104l-170 217l-164 -217h-104z" />
<glyph unicode="&#xeb;" horiz-adv-x="1042" d="M154 0v1126h782v-141h-621v-338h611v-141h-611v-365h621v-141h-782zM238 1352q0 40 28 67t68 27q39 0 66.5 -27.5t27.5 -66.5q0 -38 -28 -66.5t-66 -28.5q-40 0 -68 28.5t-28 66.5zM662 1352q0 39 27.5 66.5t66.5 27.5q40 0 68 -27t28 -67q0 -38 -28 -66.5t-68 -28.5 q-38 0 -66 28.5t-28 66.5z" />
<glyph unicode="&#xec;" horiz-adv-x="464" d="M-94 1536h160l303 -295h-117zM154 0v1126h161v-1126h-161z" />
<glyph unicode="&#xed;" horiz-adv-x="464" d="M100 1241l303 295h160l-346 -295h-117zM154 0v1126h161v-1126h-161z" />
<glyph unicode="&#xee;" horiz-adv-x="464" d="M-37 1241l195 295h147l201 -295h-105l-170 217l-163 -217h-105zM154 0v1126h161v-1126h-161z" />
<glyph unicode="&#xef;" horiz-adv-x="464" d="M-72 1352q0 39 28.5 66.5t68.5 27.5q39 0 66.5 -27.5t27.5 -66.5q0 -38 -28 -66.5t-66 -28.5q-40 0 -68.5 28.5t-28.5 66.5zM154 0v1126h161v-1126h-161zM352 1352q0 39 27.5 66.5t66.5 27.5q40 0 68.5 -27.5t28.5 -66.5q0 -38 -28.5 -66.5t-68.5 -28.5q-38 0 -66 28.5 t-28 66.5z" />
<glyph unicode="&#xf0;" horiz-adv-x="1282" d="M20 514v107h130v505h409q271 0 435.5 -160.5t164.5 -404.5q0 -119 -42.5 -222t-119 -178t-189.5 -118t-249 -43h-409v514h-130zM311 141h248q203 0 318.5 119.5t115.5 300.5q0 185 -114 304.5t-320 119.5h-248v-364h273v-107h-273v-373z" />
<glyph unicode="&#xf1;" horiz-adv-x="1294" d="M154 0v1126h168l659 -860v860h160v-1126h-162l-666 877v-877h-159zM326 1249q0 124 52 199.5t146 75.5q34 0 62.5 -14t46.5 -35t35.5 -45.5t31.5 -45.5t33.5 -35t42.5 -14q44 0 71 44t27 132h93q0 -123 -52.5 -198.5t-146.5 -75.5q-41 0 -73 19.5t-52 47t-38 55t-40 47 t-49 19.5q-44 0 -71 -44t-27 -132h-92z" />
<glyph unicode="&#xf2;" horiz-adv-x="1355" d="M96 563q0 124 42 232t117 186.5t184.5 124t238.5 45.5t238.5 -45.5t184.5 -124t117 -186.5t42 -232t-42 -232t-117 -186.5t-184.5 -124t-238.5 -45.5t-238.5 45.5t-184.5 124t-117 186.5t-42 232zM260 563q0 -194 115 -320t303 -126t303 126t115 320q0 195 -115 321 t-303 126t-303 -126t-115 -321zM350 1536h160l303 -295h-117z" />
<glyph unicode="&#xf3;" horiz-adv-x="1355" d="M96 563q0 124 42 232t117 186.5t184.5 124t238.5 45.5t238.5 -45.5t184.5 -124t117 -186.5t42 -232t-42 -232t-117 -186.5t-184.5 -124t-238.5 -45.5t-238.5 45.5t-184.5 124t-117 186.5t-42 232zM260 563q0 -194 115 -320t303 -126t303 126t115 320q0 195 -115 321 t-303 126t-303 -126t-115 -321zM547 1241l303 295h160l-346 -295h-117z" />
<glyph unicode="&#xf4;" horiz-adv-x="1355" d="M96 563q0 124 42 232t117 186.5t184.5 124t238.5 45.5t238.5 -45.5t184.5 -124t117 -186.5t42 -232t-42 -232t-117 -186.5t-184.5 -124t-238.5 -45.5t-238.5 45.5t-184.5 124t-117 186.5t-42 232zM260 563q0 -194 115 -320t303 -126t303 126t115 320q0 195 -115 321 t-303 126t-303 -126t-115 -321zM412 1241l194 295h148l200 -295h-104l-170 217l-164 -217h-104z" />
<glyph unicode="&#xf5;" horiz-adv-x="1355" d="M96 563q0 124 42 232t117 186.5t184.5 124t238.5 45.5t238.5 -45.5t184.5 -124t117 -186.5t42 -232t-42 -232t-117 -186.5t-184.5 -124t-238.5 -45.5t-238.5 45.5t-184.5 124t-117 186.5t-42 232zM260 563q0 -194 115 -320t303 -126t303 126t115 320q0 195 -115 321 t-303 126t-303 -126t-115 -321zM365 1249q0 124 52 199.5t146 75.5q34 0 62.5 -14t46.5 -35t35.5 -45.5t31.5 -45.5t33.5 -35t42.5 -14q44 0 71 44t27 132h93q0 -123 -52.5 -198.5t-146.5 -75.5q-41 0 -73 19.5t-52 47t-38 55t-40 47t-49 19.5q-44 0 -71 -44t-27 -132h-92z " />
<glyph unicode="&#xf6;" horiz-adv-x="1355" d="M96 563q0 124 42 232t117 186.5t184.5 124t238.5 45.5t238.5 -45.5t184.5 -124t117 -186.5t42 -232t-42 -232t-117 -186.5t-184.5 -124t-238.5 -45.5t-238.5 45.5t-184.5 124t-117 186.5t-42 232zM260 563q0 -194 115 -320t303 -126t303 126t115 320q0 195 -115 321 t-303 126t-303 -126t-115 -321zM375 1352q0 40 28 67t68 27q39 0 66.5 -27.5t27.5 -66.5q0 -38 -28 -66.5t-66 -28.5q-39 0 -67.5 28.5t-28.5 66.5zM799 1352q0 39 27.5 66.5t66.5 27.5q40 0 68 -27t28 -67q0 -38 -28.5 -66.5t-67.5 -28.5q-38 0 -66 28.5t-28 66.5z" />
<glyph unicode="&#xf7;" horiz-adv-x="1046" d="M59 637v106h928v-106h-928zM430 295q0 38 28 66t66 28t66 -28t28 -66t-28 -66t-66 -28t-66 28t-28 66zM430 1079q0 38 28 65t66 27t66 -27t28 -65q0 -40 -28 -68t-66 -28t-66 28t-28 68z" />
<glyph unicode="&#xf8;" horiz-adv-x="1355" d="M96 563q0 124 42 232t117 186.5t184.5 124t238.5 45.5q166 0 303 -78l39 53h137l-86 -118q90 -80 139.5 -195.5t49.5 -249.5q0 -124 -42 -232t-117 -186.5t-184.5 -124t-238.5 -45.5q-174 0 -309 80l-41 -55h-138l89 121q-88 80 -135.5 194.5t-47.5 247.5zM260 563 q0 -194 111 -317l522 708q-98 56 -215 56q-188 0 -303 -126t-115 -321zM457 176q92 -59 221 -59q188 0 303 126t115 320q0 196 -117 322z" />
<glyph unicode="&#xf9;" horiz-adv-x="1275" d="M154 434v692h161v-682q0 -153 83.5 -240t238.5 -87t239.5 87t84.5 240v682h161v-692q0 -214 -124 -336.5t-361 -122.5q-236 0 -359.5 123t-123.5 336zM309 1536h160l303 -295h-117z" />
<glyph unicode="&#xfa;" horiz-adv-x="1275" d="M154 434v692h161v-682q0 -153 83.5 -240t238.5 -87t239.5 87t84.5 240v682h161v-692q0 -214 -124 -336.5t-361 -122.5q-236 0 -359.5 123t-123.5 336zM508 1241l303 295h160l-346 -295h-117z" />
<glyph unicode="&#xfb;" horiz-adv-x="1275" d="M154 434v692h161v-682q0 -153 83.5 -240t238.5 -87t239.5 87t84.5 240v682h161v-692q0 -214 -124 -336.5t-361 -122.5q-236 0 -359.5 123t-123.5 336zM367 1241l194 295h148l200 -295h-104l-170 217l-164 -217h-104z" />
<glyph unicode="&#xfc;" horiz-adv-x="1275" d="M154 434v692h161v-682q0 -153 83.5 -240t238.5 -87t239.5 87t84.5 240v682h161v-692q0 -214 -124 -336.5t-361 -122.5q-236 0 -359.5 123t-123.5 336zM332 1352q0 40 28 67t68 27q39 0 66.5 -27.5t27.5 -66.5q0 -38 -28 -66.5t-66 -28.5q-40 0 -68 28.5t-28 66.5z M756 1352q0 39 27.5 66.5t66.5 27.5q40 0 68 -27t28 -67q0 -38 -28 -66.5t-68 -28.5q-38 0 -66 28.5t-28 66.5z" />
<glyph unicode="&#xfd;" horiz-adv-x="1120" d="M14 1126h187l364 -512l357 512h184l-463 -649v-477h-160v477zM430 1241l303 295h160l-346 -295h-117z" />
<glyph unicode="&#xfe;" horiz-adv-x="1071" d="M154 0v1126h161v-188h322q175 0 273 -99t98 -245q0 -148 -96.5 -247t-274.5 -99h-322v-248h-161zM315 389h308q107 0 164 56t57 149q0 90 -57.5 146.5t-163.5 56.5h-308v-408z" />
<glyph unicode="&#xff;" horiz-adv-x="1120" d="M14 1126h187l364 -512l357 512h184l-463 -649v-477h-160v477zM258 1352q0 40 28 67t68 27q39 0 67 -27.5t28 -66.5q0 -38 -28.5 -66.5t-66.5 -28.5q-40 0 -68 28.5t-28 66.5zM682 1352q0 39 27.5 66.5t66.5 27.5q40 0 68 -27t28 -67q0 -38 -28 -66.5t-68 -28.5 q-38 0 -66 28.5t-28 66.5z" />
<glyph unicode="&#x152;" horiz-adv-x="2263" d="M104 682q0 200 82.5 360.5t234.5 252t347 91.5q150 0 282.5 -69.5t206.5 -198.5v248h895v-152h-725v-440h711v-151h-711v-471h725v-152h-895v248q-74 -131 -206.5 -202t-282.5 -71q-195 0 -347 92.5t-234.5 253.5t-82.5 361zM281 682q0 -118 35.5 -220t100 -176.5 t160.5 -116.5t211 -42q160 0 284.5 85.5t184.5 246.5v448q-60 160 -184 244t-285 84q-231 0 -369 -155t-138 -398z" />
<glyph unicode="&#x153;" horiz-adv-x="1951" d="M96 563q0 166 68.5 299.5t197 211t293.5 77.5q133 0 238 -56.5t170 -168.5v200h784v-141h-624v-338h612v-141h-612v-365h624v-141h-784v203q-65 -113 -170 -170.5t-238 -57.5q-165 0 -293.5 77.5t-197 211t-68.5 299.5zM260 563q0 -194 115.5 -320t304.5 -126 q133 0 234.5 69t148.5 211v336q-47 140 -150 208.5t-233 68.5q-189 0 -304.5 -126t-115.5 -321z" />
<glyph unicode="&#x178;" horiz-adv-x="1282" d="M18 1366h199l424 -635l424 635h199l-537 -788v-578h-170v578zM340 1583q0 40 28 67t68 27q39 0 66.5 -27.5t27.5 -66.5q0 -38 -28 -66t-66 -28q-40 0 -68 28t-28 66zM764 1583q0 39 27.5 66.5t66.5 27.5q40 0 68 -27t28 -67q0 -38 -28 -66t-68 -28q-38 0 -66 28t-28 66z " />
<glyph unicode="&#x2c6;" horiz-adv-x="542" d="M0 1139l195 295h147l201 -295h-105l-170 217l-164 -217h-104z" />
<glyph unicode="&#x2dc;" horiz-adv-x="641" d="M0 1147q0 123 52.5 198.5t146.5 75.5q41 0 73 -19.5t52 -47t38 -55t40 -47t49 -19.5q44 0 71 44t27 132h92q0 -123 -52.5 -198.5t-146.5 -75.5q-41 0 -73 19.5t-52 47t-38 55t-40 47t-49 19.5q-44 0 -71 -44t-27 -132h-92z" />
<glyph unicode="&#x2000;" horiz-adv-x="911" />
<glyph unicode="&#x2001;" horiz-adv-x="1823" />
<glyph unicode="&#x2002;" horiz-adv-x="911" />
<glyph unicode="&#x2003;" horiz-adv-x="1823" />
<glyph unicode="&#x2004;" horiz-adv-x="607" />
<glyph unicode="&#x2005;" horiz-adv-x="455" />
<glyph unicode="&#x2006;" horiz-adv-x="303" />
<glyph unicode="&#x2007;" horiz-adv-x="303" />
<glyph unicode="&#x2008;" horiz-adv-x="227" />
<glyph unicode="&#x2009;" horiz-adv-x="364" />
<glyph unicode="&#x200a;" horiz-adv-x="101" />
<glyph unicode="&#x2010;" horiz-adv-x="614" d="M61 428v135h492v-135h-492z" />
<glyph unicode="&#x2011;" horiz-adv-x="614" d="M61 428v135h492v-135h-492z" />
<glyph unicode="&#x2012;" horiz-adv-x="614" d="M61 428v135h492v-135h-492z" />
<glyph unicode="&#x2013;" horiz-adv-x="1214" d="M61 428v135h1092v-135h-1092z" />
<glyph unicode="&#x2014;" horiz-adv-x="1705" d="M61 428v135h1584v-135h-1584z" />
<glyph unicode="&#x2018;" horiz-adv-x="471" d="M98 1079q0 90 46 172.5t118 134.5l78 -61q-50 -33 -88.5 -87t-44.5 -103q1 0 12 2t17 2q41 0 69.5 -30.5t28.5 -74.5q0 -46 -31.5 -78t-77.5 -32q-54 0 -90.5 41.5t-36.5 113.5z" />
<glyph unicode="&#x2019;" horiz-adv-x="471" d="M117 985q50 33 88.5 87.5t44.5 103.5q-10 -5 -29 -5q-41 0 -69.5 30.5t-28.5 74.5q0 45 31.5 77.5t76.5 32.5q55 0 92 -41.5t37 -113.5q0 -91 -46 -173.5t-119 -135.5z" />
<glyph unicode="&#x201a;" horiz-adv-x="471" d="M117 -197q51 33 89 87t44 104q-8 -4 -29 -4q-41 0 -69.5 30t-28.5 74q0 45 31.5 78t76.5 33q55 0 92 -42.5t37 -113.5q0 -91 -46 -173.5t-119 -135.5z" />
<glyph unicode="&#x201c;" horiz-adv-x="798" d="M111 1079q0 91 46 173.5t119 133.5l76 -61q-50 -32 -87.5 -86.5t-43.5 -103.5l11 2q10 2 16 2q43 0 71.5 -30.5t28.5 -74.5q0 -46 -32 -78t-78 -32q-54 0 -90.5 41.5t-36.5 113.5zM438 1079q0 91 46.5 173.5t119.5 133.5l76 -61q-50 -32 -87.5 -86.5t-43.5 -103.5 q1 0 11 2t15 2q43 0 72 -30.5t29 -74.5q0 -46 -32.5 -78t-78.5 -32q-54 0 -90.5 41.5t-36.5 113.5z" />
<glyph unicode="&#x201d;" horiz-adv-x="798" d="M117 985q50 33 88.5 87.5t44.5 103.5q-10 -5 -29 -5q-41 0 -69.5 30.5t-28.5 74.5q0 45 31.5 77.5t76.5 32.5q55 0 92 -41.5t37 -113.5q0 -91 -46 -173.5t-119 -135.5zM446 985q50 33 88 87.5t44 103.5q-5 -5 -27 -5q-43 0 -71.5 30.5t-28.5 74.5q0 45 32.5 77.5 t77.5 32.5q54 0 90.5 -41.5t36.5 -113.5q0 -91 -46.5 -173.5t-119.5 -135.5z" />
<glyph unicode="&#x201e;" horiz-adv-x="798" d="M117 -197q51 33 89 87t44 104q-8 -4 -29 -4q-41 0 -69.5 30t-28.5 74q0 45 31.5 78t76.5 33q55 0 92 -42.5t37 -113.5q0 -91 -46 -173.5t-119 -135.5zM446 -197q50 33 88 87t44 104q-4 -4 -27 -4q-43 0 -71.5 30t-28.5 74q0 45 32.5 78t77.5 33q53 0 90 -42.5t37 -113.5 q0 -91 -46.5 -173.5t-119.5 -135.5z" />
<glyph unicode="&#x2022;" horiz-adv-x="733" d="M147 496q0 91 65.5 156t156.5 65t156 -65t65 -156q0 -90 -65 -155t-156 -65t-156.5 65.5t-65.5 154.5z" />
<glyph unicode="&#x2026;" horiz-adv-x="1415" d="M123 92q0 46 33.5 79.5t79.5 33.5t79 -33.5t33 -79.5q0 -45 -33.5 -78.5t-78.5 -33.5q-46 0 -79.5 34t-33.5 78zM594 92q0 46 33.5 79.5t79.5 33.5t79 -33.5t33 -79.5q0 -45 -33.5 -78.5t-78.5 -33.5t-79 34t-34 78zM1067 92q0 46 33.5 79.5t79.5 33.5q45 0 77.5 -33.5 t32.5 -79.5q0 -45 -32.5 -78.5t-77.5 -33.5q-46 0 -79.5 34t-33.5 78z" />
<glyph unicode="&#x202f;" horiz-adv-x="364" />
<glyph unicode="&#x2039;" horiz-adv-x="604" d="M61 498l328 362h154l-328 -362l328 -369h-154z" />
<glyph unicode="&#x203a;" horiz-adv-x="604" d="M61 129l328 369l-328 362h154l328 -362l-328 -369h-154z" />
<glyph unicode="&#x205f;" horiz-adv-x="455" />
<glyph unicode="&#x20ac;" horiz-adv-x="1249" d="M63 389v98h95q-4 25 -4 78q0 22 4 72h-95v98h113q53 189 210.5 302.5t369.5 113.5q145 0 257.5 -61.5t188.5 -169.5l-129 -72q-52 75 -136 118.5t-181 43.5q-141 0 -250.5 -74.5t-157.5 -200.5h492v-98h-518q-5 -63 -5 -72q0 -47 5 -78h518v-98h-490 q47 -125 156.5 -198.5t249.5 -73.5q97 0 183 44.5t134 117.5l131 -72q-169 -232 -448 -232q-211 0 -368.5 112.5t-211.5 301.5h-113z" />
<glyph unicode="&#x2122;" horiz-adv-x="929" d="M35 1313v53h311v-53h-127v-398h-57v398h-127zM420 915v451h88l131 -328l131 328h88v-451h-57v373l-154 -373h-16l-154 373v-373h-57z" />
<glyph unicode="&#x25fc;" horiz-adv-x="1126" d="M0 0v1126h1126v-1126h-1126z" />
<hkern u1="J" u2="&#x2026;" k="61" />
<hkern u1="J" u2="&#x201e;" k="61" />
<hkern u1="J" u2="&#x201a;" k="61" />
<hkern u1="J" u2="&#x2e;" k="61" />
<hkern u1="J" u2="&#x2c;" k="61" />
<hkern u1="O" u2="&#xe6;" k="61" />
<hkern u1="O" u2="&#xe5;" k="61" />
<hkern u1="O" u2="&#xe4;" k="61" />
<hkern u1="O" u2="&#xe3;" k="61" />
<hkern u1="O" u2="&#xe2;" k="61" />
<hkern u1="O" u2="&#xe1;" k="61" />
<hkern u1="O" u2="&#xe0;" k="61" />
<hkern u1="O" u2="a" k="61" />
<hkern u1="O" u2="X" k="61" />
<hkern u1="Q" u2="&#xe6;" k="61" />
<hkern u1="Q" u2="&#xe5;" k="61" />
<hkern u1="Q" u2="&#xe4;" k="61" />
<hkern u1="Q" u2="&#xe3;" k="61" />
<hkern u1="Q" u2="&#xe2;" k="61" />
<hkern u1="Q" u2="&#xe1;" k="61" />
<hkern u1="Q" u2="&#xe0;" k="61" />
<hkern u1="Q" u2="a" k="61" />
<hkern u1="Q" u2="X" k="61" />
<hkern u1="W" u2="&#xf2;" k="61" />
<hkern u1="&#xd0;" u2="&#xe6;" k="61" />
<hkern u1="&#xd0;" u2="&#xe5;" k="61" />
<hkern u1="&#xd0;" u2="&#xe4;" k="61" />
<hkern u1="&#xd0;" u2="&#xe2;" k="61" />
<hkern u1="&#xd0;" u2="X" k="61" />
<hkern u1="&#xd2;" u2="&#xe6;" k="61" />
<hkern u1="&#xd2;" u2="&#xe5;" k="61" />
<hkern u1="&#xd2;" u2="&#xe4;" k="61" />
<hkern u1="&#xd2;" u2="&#xe3;" k="61" />
<hkern u1="&#xd2;" u2="&#xe2;" k="61" />
<hkern u1="&#xd2;" u2="&#xe1;" k="61" />
<hkern u1="&#xd2;" u2="&#xe0;" k="61" />
<hkern u1="&#xd2;" u2="a" k="61" />
<hkern u1="&#xd2;" u2="X" k="61" />
<hkern u1="&#xd3;" u2="&#xe4;" k="61" />
<hkern u1="&#xd4;" u2="&#xe6;" k="61" />
<hkern u1="&#xd4;" u2="&#xe3;" k="61" />
<hkern u1="&#xd4;" u2="&#xe2;" k="61" />
<hkern u1="&#xd4;" u2="&#xe1;" k="61" />
<hkern u1="&#xd5;" u2="&#xe6;" k="61" />
<hkern u1="&#xd5;" u2="&#xe5;" k="61" />
<hkern u1="&#xd5;" u2="&#xe4;" k="61" />
<hkern u1="&#xd5;" u2="&#xe3;" k="61" />
<hkern u1="&#xd5;" u2="&#xe2;" k="61" />
<hkern u1="&#xd5;" u2="&#xe1;" k="61" />
<hkern u1="&#xd5;" u2="&#xe0;" k="61" />
<hkern u1="&#xd5;" u2="a" k="61" />
<hkern u1="&#xd5;" u2="X" k="61" />
<hkern u1="&#xd6;" u2="&#xe6;" k="61" />
<hkern u1="&#xd6;" u2="&#xe5;" k="61" />
<hkern u1="&#xd6;" u2="&#xe4;" k="61" />
<hkern u1="&#xd6;" u2="&#xe3;" k="61" />
<hkern u1="&#xd6;" u2="&#xe2;" k="61" />
<hkern u1="&#xd6;" u2="&#xe1;" k="61" />
<hkern u1="&#xd6;" u2="&#xe0;" k="61" />
<hkern u1="&#xd6;" u2="a" k="61" />
<hkern u1="&#xd6;" u2="X" k="61" />
<hkern u1="&#xd8;" u2="&#xe6;" k="61" />
<hkern u1="&#xd8;" u2="&#xe5;" k="61" />
<hkern u1="&#xd8;" u2="&#xe4;" k="61" />
<hkern u1="&#xd8;" u2="&#xe3;" k="61" />
<hkern u1="&#xd8;" u2="&#xe2;" k="61" />
<hkern u1="&#xd8;" u2="&#xe1;" k="61" />
<hkern u1="&#xd8;" u2="&#xe0;" k="61" />
<hkern u1="&#xd8;" u2="a" k="61" />
<hkern u1="&#xd8;" u2="X" k="61" />
<hkern u1="&#xd9;" u2="&#x2026;" k="61" />
<hkern u1="&#xd9;" u2="&#x201e;" k="61" />
<hkern u1="&#xd9;" u2="&#x201a;" k="61" />
<hkern u1="&#xd9;" u2="&#x2e;" k="61" />
<hkern u1="&#xd9;" u2="&#x2c;" k="61" />
<hkern u1="&#xda;" u2="&#x2026;" k="61" />
<hkern u1="&#xda;" u2="&#x201e;" k="61" />
<hkern u1="&#xda;" u2="&#x201a;" k="61" />
<hkern u1="&#xda;" u2="&#x2e;" k="61" />
<hkern u1="&#xda;" u2="&#x2c;" k="61" />
<hkern u1="&#xdb;" u2="&#x2026;" k="61" />
<hkern u1="&#xdb;" u2="&#x201e;" k="61" />
<hkern u1="&#xdb;" u2="&#x201a;" k="61" />
<hkern u1="&#xdb;" u2="&#x2e;" k="61" />
<hkern u1="&#xdb;" u2="&#x2c;" k="61" />
<hkern u1="&#xdc;" u2="&#x2026;" k="61" />
<hkern u1="&#xdc;" u2="&#x201e;" k="61" />
<hkern u1="&#xdc;" u2="&#x201a;" k="61" />
<hkern u1="&#xdc;" u2="&#x2e;" k="61" />
<hkern u1="&#xdc;" u2="&#x2c;" k="61" />
<hkern u1="&#xde;" u2="&#xe6;" k="61" />
<hkern u1="&#xde;" u2="&#xe5;" k="61" />
<hkern u1="&#xde;" u2="&#xe4;" k="61" />
<hkern u1="&#xde;" u2="&#xe3;" k="61" />
<hkern u1="&#xde;" u2="&#xe2;" k="61" />
<hkern u1="&#xde;" u2="&#xe1;" k="61" />
<hkern u1="&#xde;" u2="&#xe0;" k="61" />
<hkern u1="&#xde;" u2="a" k="61" />
<hkern u1="&#xde;" u2="X" k="61" />
<hkern g1="A,Agrave,Aacute,Acircumflex,Atilde,Adieresis,Aring" 	g2="asterisk" 	k="207" />
<hkern g1="A,Agrave,Aacute,Acircumflex,Atilde,Adieresis,Aring" 	g2="C,G,O,Q,Ccedilla,Ograve,Oacute,Ocircumflex,Otilde,Odieresis,Oslash,OE" 	k="76" />
<hkern g1="A,Agrave,Aacute,Acircumflex,Atilde,Adieresis,Aring" 	g2="T" 	k="137" />
<hkern g1="A,Agrave,Aacute,Acircumflex,Atilde,Adieresis,Aring" 	g2="V" 	k="111" />
<hkern g1="A,Agrave,Aacute,Acircumflex,Atilde,Adieresis,Aring" 	g2="W" 	k="96" />
<hkern g1="A,Agrave,Aacute,Acircumflex,Atilde,Adieresis,Aring" 	g2="Y,Yacute,Ydieresis" 	k="129" />
<hkern g1="A,Agrave,Aacute,Acircumflex,Atilde,Adieresis,Aring" 	g2="quotedbl,quotesingle,registered,quoteleft,quoteright,quotedblleft,quotedblright,trademark" 	k="199" />
<hkern g1="A,Agrave,Aacute,Acircumflex,Atilde,Adieresis,Aring" 	g2="t" 	k="76" />
<hkern g1="A,Agrave,Aacute,Acircumflex,Atilde,Adieresis,Aring" 	g2="y,yacute,ydieresis" 	k="102" />
<hkern g1="a,agrave,aacute,acircumflex,atilde,adieresis,aring" 	g2="asterisk" 	k="131" />
<hkern g1="a,agrave,aacute,acircumflex,atilde,adieresis,aring" 	g2="C,G,O,Q,Ccedilla,Ograve,Oacute,Ocircumflex,Otilde,Odieresis,Oslash,OE" 	k="61" />
<hkern g1="a,agrave,aacute,acircumflex,atilde,adieresis,aring" 	g2="T" 	k="205" />
<hkern g1="a,agrave,aacute,acircumflex,atilde,adieresis,aring" 	g2="V" 	k="111" />
<hkern g1="a,agrave,aacute,acircumflex,atilde,adieresis,aring" 	g2="W" 	k="102" />
<hkern g1="a,agrave,aacute,acircumflex,atilde,adieresis,aring" 	g2="Y,Yacute,Ydieresis" 	k="141" />
<hkern g1="a,agrave,aacute,acircumflex,atilde,adieresis,aring" 	g2="quotedbl,quotesingle,registered,quoteleft,quoteright,quotedblleft,quotedblright,trademark" 	k="164" />
<hkern g1="a,agrave,aacute,acircumflex,atilde,adieresis,aring" 	g2="t" 	k="88" />
<hkern g1="a,agrave,aacute,acircumflex,atilde,adieresis,aring" 	g2="y,yacute,ydieresis" 	k="82" />
<hkern g1="a,agrave,aacute,acircumflex,atilde,adieresis,aring" 	g2="question" 	k="88" />
<hkern g1="a,agrave,aacute,acircumflex,atilde,adieresis,aring" 	g2="v" 	k="61" />
<hkern g1="b" 	g2="T" 	k="115" />
<hkern g1="b" 	g2="Y,Yacute,Ydieresis" 	k="82" />
<hkern g1="c,ccedilla" 	g2="T" 	k="154" />
<hkern g1="c,ccedilla" 	g2="Y,Yacute,Ydieresis" 	k="80" />
<hkern g1="D,O,Q,Eth,Ograve,Oacute,Ocircumflex,Otilde,Odieresis,Oslash,Thorn" 	g2="Y,Yacute,Ydieresis" 	k="82" />
<hkern g1="D,O,Q,Eth,Ograve,Oacute,Ocircumflex,Otilde,Odieresis,Oslash,Thorn" 	g2="A,Agrave,Aacute,Acircumflex,Atilde,Adieresis,Aring,AE" 	k="76" />
<hkern g1="d,o,q,eth,ograve,oacute,ocircumflex,otilde,odieresis,oslash,thorn" 	g2="T" 	k="166" />
<hkern g1="d,o,q,eth,ograve,oacute,ocircumflex,otilde,odieresis,oslash,thorn" 	g2="V" 	k="102" />
<hkern g1="d,o,q,eth,ograve,oacute,ocircumflex,otilde,odieresis,oslash,thorn" 	g2="W" 	k="61" />
<hkern g1="d,o,q,eth,ograve,oacute,ocircumflex,otilde,odieresis,oslash,thorn" 	g2="Y,Yacute,Ydieresis" 	k="156" />
<hkern g1="d,o,q,eth,ograve,oacute,ocircumflex,otilde,odieresis,oslash,thorn" 	g2="t" 	k="61" />
<hkern g1="d,o,q,eth,ograve,oacute,ocircumflex,otilde,odieresis,oslash,thorn" 	g2="y,yacute,ydieresis" 	k="61" />
<hkern g1="d,o,q,eth,ograve,oacute,ocircumflex,otilde,odieresis,oslash,thorn" 	g2="X" 	k="111" />
<hkern g1="F" 	g2="A,Agrave,Aacute,Acircumflex,Atilde,Adieresis,Aring,AE" 	k="74" />
<hkern g1="F" 	g2="comma,period,quotesinglbase,quotedblbase,ellipsis" 	k="102" />
<hkern g1="F" 	g2="J" 	k="121" />
<hkern g1="F" 	g2="a,agrave,aacute,acircumflex,atilde,adieresis,aring,ae" 	k="80" />
<hkern g1="F" 	g2="j" 	k="115" />
<hkern g1="f" 	g2="J" 	k="74" />
<hkern g1="f" 	g2="j" 	k="94" />
<hkern g1="g" 	g2="T" 	k="90" />
<hkern g1="h,i,m,n,igrave,iacute,icircumflex,idieresis,ntilde" 	g2="T" 	k="129" />
<hkern g1="h,i,m,n,igrave,iacute,icircumflex,idieresis,ntilde" 	g2="Y,Yacute,Ydieresis" 	k="68" />
<hkern g1="K" 	g2="C,G,O,Q,Ccedilla,Ograve,Oacute,Ocircumflex,Otilde,Odieresis,Oslash,OE" 	k="111" />
<hkern g1="K" 	g2="t" 	k="109" />
<hkern g1="K" 	g2="y,yacute,ydieresis" 	k="123" />
<hkern g1="K" 	g2="v" 	k="88" />
<hkern g1="K" 	g2="hyphen,periodcentered,endash,emdash" 	k="102" />
<hkern g1="K" 	g2="c,g,o,q,ccedilla,ograve,oacute,ocircumflex,otilde,odieresis,oslash,oe" 	k="117" />
<hkern g1="K" 	g2="u,ugrave,uacute,ucircumflex,udieresis" 	k="102" />
<hkern g1="K" 	g2="w" 	k="82" />
<hkern g1="k" 	g2="T" 	k="72" />
<hkern g1="k" 	g2="y,yacute,ydieresis" 	k="80" />
<hkern g1="k" 	g2="hyphen,periodcentered,endash,emdash" 	k="76" />
<hkern g1="k" 	g2="c,g,o,q,ccedilla,ograve,oacute,ocircumflex,otilde,odieresis,oslash,oe" 	k="88" />
<hkern g1="k" 	g2="bullet" 	k="96" />
<hkern g1="L" 	g2="asterisk" 	k="356" />
<hkern g1="L" 	g2="C,G,O,Q,Ccedilla,Ograve,Oacute,Ocircumflex,Otilde,Odieresis,Oslash,OE" 	k="70" />
<hkern g1="L" 	g2="T" 	k="205" />
<hkern g1="L" 	g2="V" 	k="184" />
<hkern g1="L" 	g2="W" 	k="135" />
<hkern g1="L" 	g2="Y,Yacute,Ydieresis" 	k="252" />
<hkern g1="L" 	g2="quotedbl,quotesingle,registered,quoteleft,quoteright,quotedblleft,quotedblright,trademark" 	k="250" />
<hkern g1="L" 	g2="t" 	k="158" />
<hkern g1="L" 	g2="y,yacute,ydieresis" 	k="176" />
<hkern g1="L" 	g2="v" 	k="109" />
<hkern g1="L" 	g2="c,g,o,q,ccedilla,ograve,oacute,ocircumflex,otilde,odieresis,oslash,oe" 	k="84" />
<hkern g1="L" 	g2="w" 	k="96" />
<hkern g1="l,uniFB02" 	g2="asterisk" 	k="240" />
<hkern g1="l,uniFB02" 	g2="C,G,O,Q,Ccedilla,Ograve,Oacute,Ocircumflex,Otilde,Odieresis,Oslash,OE" 	k="70" />
<hkern g1="l,uniFB02" 	g2="T" 	k="219" />
<hkern g1="l,uniFB02" 	g2="V" 	k="199" />
<hkern g1="l,uniFB02" 	g2="W" 	k="94" />
<hkern g1="l,uniFB02" 	g2="Y,Yacute,Ydieresis" 	k="238" />
<hkern g1="l,uniFB02" 	g2="quotedbl,quotesingle,registered,quoteleft,quoteright,quotedblleft,quotedblright,trademark" 	k="225" />
<hkern g1="l,uniFB02" 	g2="t" 	k="178" />
<hkern g1="l,uniFB02" 	g2="y,yacute,ydieresis" 	k="205" />
<hkern g1="l,uniFB02" 	g2="v" 	k="152" />
<hkern g1="l,uniFB02" 	g2="w" 	k="123" />
<hkern g1="P" 	g2="A,Agrave,Aacute,Acircumflex,Atilde,Adieresis,Aring,AE" 	k="158" />
<hkern g1="P" 	g2="comma,period,quotesinglbase,quotedblbase,ellipsis" 	k="193" />
<hkern g1="P" 	g2="J" 	k="223" />
<hkern g1="P" 	g2="a,agrave,aacute,acircumflex,atilde,adieresis,aring,ae" 	k="164" />
<hkern g1="P" 	g2="j" 	k="197" />
<hkern g1="P" 	g2="hyphen,periodcentered,endash,emdash" 	k="70" />
<hkern g1="P" 	g2="ampersand" 	k="74" />
<hkern g1="p" 	g2="comma,period,quotesinglbase,quotedblbase,ellipsis" 	k="119" />
<hkern g1="p" 	g2="a,agrave,aacute,acircumflex,atilde,adieresis,aring,ae" 	k="96" />
<hkern g1="p" 	g2="j" 	k="158" />
<hkern g1="s" 	g2="T" 	k="141" />
<hkern g1="T" 	g2="y,yacute,ydieresis" 	k="72" />
<hkern g1="T" 	g2="v" 	k="72" />
<hkern g1="T" 	g2="A,Agrave,Aacute,Acircumflex,Atilde,Adieresis,Aring,AE" 	k="137" />
<hkern g1="T" 	g2="comma,period,quotesinglbase,quotedblbase,ellipsis" 	k="190" />
<hkern g1="T" 	g2="J" 	k="170" />
<hkern g1="T" 	g2="a,agrave,aacute,acircumflex,atilde,adieresis,aring,ae" 	k="205" />
<hkern g1="T" 	g2="j" 	k="219" />
<hkern g1="T" 	g2="hyphen,periodcentered,endash,emdash" 	k="123" />
<hkern g1="T" 	g2="c,g,o,q,ccedilla,ograve,oacute,ocircumflex,otilde,odieresis,oslash,oe" 	k="166" />
<hkern g1="T" 	g2="u,ugrave,uacute,ucircumflex,udieresis" 	k="115" />
<hkern g1="T" 	g2="w" 	k="72" />
<hkern g1="T" 	g2="ampersand" 	k="199" />
<hkern g1="T" 	g2="colon,semicolon" 	k="102" />
<hkern g1="T" 	g2="b,d,e,f,h,i,k,l,m,n,p,r,egrave,eacute,ecircumflex,edieresis,igrave,iacute,icircumflex,idieresis,eth,ntilde" 	k="121" />
<hkern g1="T" 	g2="s" 	k="133" />
<hkern g1="T" 	g2="x" 	k="72" />
<hkern g1="T" 	g2="z" 	k="86" />
<hkern g1="t" 	g2="A,Agrave,Aacute,Acircumflex,Atilde,Adieresis,Aring,AE" 	k="76" />
<hkern g1="t" 	g2="comma,period,quotesinglbase,quotedblbase,ellipsis" 	k="123" />
<hkern g1="t" 	g2="a,agrave,aacute,acircumflex,atilde,adieresis,aring,ae" 	k="88" />
<hkern g1="t" 	g2="j" 	k="150" />
<hkern g1="t" 	g2="c,g,o,q,ccedilla,ograve,oacute,ocircumflex,otilde,odieresis,oslash,oe" 	k="61" />
<hkern g1="t" 	g2="ampersand" 	k="96" />
<hkern g1="j,u,ugrave,uacute,ucircumflex,udieresis" 	g2="T" 	k="115" />
<hkern g1="V" 	g2="A,Agrave,Aacute,Acircumflex,Atilde,Adieresis,Aring,AE" 	k="111" />
<hkern g1="V" 	g2="comma,period,quotesinglbase,quotedblbase,ellipsis" 	k="184" />
<hkern g1="V" 	g2="J" 	k="190" />
<hkern g1="V" 	g2="a,agrave,aacute,acircumflex,atilde,adieresis,aring,ae" 	k="111" />
<hkern g1="V" 	g2="j" 	k="199" />
<hkern g1="V" 	g2="hyphen,periodcentered,endash,emdash" 	k="109" />
<hkern g1="V" 	g2="c,g,o,q,ccedilla,ograve,oacute,ocircumflex,otilde,odieresis,oslash,oe" 	k="102" />
<hkern g1="V" 	g2="ampersand" 	k="109" />
<hkern g1="v" 	g2="T" 	k="72" />
<hkern g1="v" 	g2="comma,period,quotesinglbase,quotedblbase,ellipsis" 	k="86" />
<hkern g1="v" 	g2="a,agrave,aacute,acircumflex,atilde,adieresis,aring,ae" 	k="61" />
<hkern g1="v" 	g2="j" 	k="150" />
<hkern g1="W" 	g2="A,Agrave,Aacute,Acircumflex,Atilde,Adieresis,Aring,AE" 	k="96" />
<hkern g1="W" 	g2="comma,period,quotesinglbase,quotedblbase,ellipsis" 	k="137" />
<hkern g1="W" 	g2="J" 	k="78" />
<hkern g1="W" 	g2="a,agrave,aacute,acircumflex,atilde,adieresis,aring,ae" 	k="102" />
<hkern g1="W" 	g2="j" 	k="94" />
<hkern g1="W" 	g2="hyphen,periodcentered,endash,emdash" 	k="68" />
<hkern g1="w" 	g2="T" 	k="72" />
<hkern g1="w" 	g2="comma,period,quotesinglbase,quotedblbase,ellipsis" 	k="96" />
<hkern g1="w" 	g2="j" 	k="80" />
<hkern g1="Y,Yacute,Ydieresis" 	g2="C,G,O,Q,Ccedilla,Ograve,Oacute,Ocircumflex,Otilde,Odieresis,Oslash,OE" 	k="82" />
<hkern g1="Y,Yacute,Ydieresis" 	g2="A,Agrave,Aacute,Acircumflex,Atilde,Adieresis,Aring,AE" 	k="129" />
<hkern g1="Y,Yacute,Ydieresis" 	g2="comma,period,quotesinglbase,quotedblbase,ellipsis" 	k="184" />
<hkern g1="Y,Yacute,Ydieresis" 	g2="J" 	k="231" />
<hkern g1="Y,Yacute,Ydieresis" 	g2="a,agrave,aacute,acircumflex,atilde,adieresis,aring,ae" 	k="141" />
<hkern g1="Y,Yacute,Ydieresis" 	g2="j" 	k="238" />
<hkern g1="Y,Yacute,Ydieresis" 	g2="hyphen,periodcentered,endash,emdash" 	k="238" />
<hkern g1="Y,Yacute,Ydieresis" 	g2="c,g,o,q,ccedilla,ograve,oacute,ocircumflex,otilde,odieresis,oslash,oe" 	k="156" />
<hkern g1="Y,Yacute,Ydieresis" 	g2="colon,semicolon" 	k="121" />
<hkern g1="Y,Yacute,Ydieresis" 	g2="b,d,e,f,h,i,k,l,m,n,p,r,egrave,eacute,ecircumflex,edieresis,igrave,iacute,icircumflex,idieresis,eth,ntilde" 	k="68" />
<hkern g1="Y,Yacute,Ydieresis" 	g2="s" 	k="80" />
<hkern g1="y,yacute,ydieresis" 	g2="T" 	k="72" />
<hkern g1="y,yacute,ydieresis" 	g2="A,Agrave,Aacute,Acircumflex,Atilde,Adieresis,Aring,AE" 	k="102" />
<hkern g1="y,yacute,ydieresis" 	g2="comma,period,quotesinglbase,quotedblbase,ellipsis" 	k="143" />
<hkern g1="y,yacute,ydieresis" 	g2="a,agrave,aacute,acircumflex,atilde,adieresis,aring,ae" 	k="82" />
<hkern g1="y,yacute,ydieresis" 	g2="j" 	k="199" />
<hkern g1="y,yacute,ydieresis" 	g2="c,g,o,q,ccedilla,ograve,oacute,ocircumflex,otilde,odieresis,oslash,oe" 	k="61" />
<hkern g1="y,yacute,ydieresis" 	g2="ampersand" 	k="109" />
<hkern g1="z" 	g2="T" 	k="86" />
<hkern g1="ampersand" 	g2="T" 	k="207" />
<hkern g1="ampersand" 	g2="V" 	k="152" />
<hkern g1="ampersand" 	g2="t" 	k="123" />
<hkern g1="ampersand" 	g2="y,yacute,ydieresis" 	k="131" />
<hkern g1="asterisk" 	g2="A,Agrave,Aacute,Acircumflex,Atilde,Adieresis,Aring,AE" 	k="207" />
<hkern g1="asterisk" 	g2="J" 	k="238" />
<hkern g1="asterisk" 	g2="a,agrave,aacute,acircumflex,atilde,adieresis,aring,ae" 	k="131" />
<hkern g1="asterisk" 	g2="j" 	k="211" />
<hkern g1="colon,semicolon" 	g2="T" 	k="102" />
<hkern g1="colon,semicolon" 	g2="Y,Yacute,Ydieresis" 	k="121" />
<hkern g1="hyphen,periodcentered,endash,emdash" 	g2="V" 	k="109" />
<hkern g1="hyphen,periodcentered,endash,emdash" 	g2="W" 	k="68" />
<hkern g1="hyphen,periodcentered,endash,emdash" 	g2="Y,Yacute,Ydieresis" 	k="223" />
<hkern g1="hyphen,periodcentered,endash,emdash" 	g2="X" 	k="88" />
<hkern g1="comma,period,quotesinglbase,quotedblbase,ellipsis" 	g2="T" 	k="190" />
<hkern g1="comma,period,quotesinglbase,quotedblbase,ellipsis" 	g2="V" 	k="178" />
<hkern g1="comma,period,quotesinglbase,quotedblbase,ellipsis" 	g2="W" 	k="137" />
<hkern g1="comma,period,quotesinglbase,quotedblbase,ellipsis" 	g2="Y,Yacute,Ydieresis" 	k="184" />
<hkern g1="comma,period,quotesinglbase,quotedblbase,ellipsis" 	g2="quotedbl,quotesingle,registered,quoteleft,quoteright,quotedblleft,quotedblright,trademark" 	k="156" />
<hkern g1="comma,period,quotesinglbase,quotedblbase,ellipsis" 	g2="t" 	k="123" />
<hkern g1="comma,period,quotesinglbase,quotedblbase,ellipsis" 	g2="y,yacute,ydieresis" 	k="143" />
<hkern g1="comma,period,quotesinglbase,quotedblbase,ellipsis" 	g2="v" 	k="86" />
<hkern g1="comma,period,quotesinglbase,quotedblbase,ellipsis" 	g2="w" 	k="96" />
<hkern g1="comma,period,quotesinglbase,quotedblbase,ellipsis" 	g2="U,Ugrave,Uacute,Ucircumflex,Udieresis" 	k="61" />
<hkern g1="quotedbl,quotesingle,quoteleft,quoteright,quotedblleft,quotedblright" 	g2="A,Agrave,Aacute,Acircumflex,Atilde,Adieresis,Aring,AE" 	k="213" />
<hkern g1="quotedbl,quotesingle,quoteleft,quoteright,quotedblleft,quotedblright" 	g2="comma,period,quotesinglbase,quotedblbase,ellipsis" 	k="156" />
<hkern g1="quotedbl,quotesingle,quoteleft,quoteright,quotedblleft,quotedblright" 	g2="J" 	k="188" />
<hkern g1="quotedbl,quotesingle,quoteleft,quoteright,quotedblleft,quotedblright" 	g2="a,agrave,aacute,acircumflex,atilde,adieresis,aring,ae" 	k="164" />
<hkern g1="X" 	g2="hyphen,periodcentered,endash,emdash" 	k="88" />
<hkern g1="X" 	g2="c,g,o,q,ccedilla,ograve,oacute,ocircumflex,otilde,odieresis,oslash,oe" 	k="111" />
<hkern g1="x" 	g2="T" 	k="72" />
</font>
</defs></svg> 