{
    "swagger": "2.0",
    "info": {
        "title": "CreditBPO Api",
        "version": "1.0"
    },
    "paths": {
        "/api/v1/sample-api": {
            "get": {
                "responses": {
                    "200": {
                        "description": "An example resource"
                    }
                }
            }
        },
        "/api/v1/users": {
            "get": {
                "responses": {
                    "200": {
                        "description": "A user resource"
                    },
                    "400": {
                        "description": "A non-existing user resource"
                    }
                }
            }
        }
    },
    "definitions": {}
}